# Copyright (C) 2017  Intel Corporation. All rights reserved.
# Your use of Intel Corporation's design tools, logic functions 
# and other software and tools, and its AMPP partner logic 
# functions, and any output files from any of the foregoing 
# (including device programming or simulation files), and any 
# associated documentation or information are expressly subject 
# to the terms and conditions of the Intel Program License 
# Subscription Agreement, the Intel Quartus Prime License Agreement,
# the Intel FPGA IP License Agreement, or other applicable license
# agreement, including, without limitation, that your use is for
# the sole purpose of programming logic devices manufactured by
# Intel and sold by Intel or its authorized distributors.  Please
# refer to the applicable agreement for further details.

# Quartus Prime Version 17.1.0 Build 590 10/25/2017 SJ Lite Edition
# File: D:\OneDrive\github\FPGAMarsohodCAD\labs\LabsQuartus\Lab6\PIN_migration.csv
# Generated on: Mon Apr 23 11:45:42 2018

# Note: The column header names should not be changed if you wish to import this .csv file into the Quartus Prime software.

To,Direction,Location,I/O Bank,Fitter Location,I/O Standard,Current Strength,VREF Group,Reserved,Slew Rate,Differential Pair,Strict Preservation
clk1,Input,PIN_M2,2,PIN_M2,1.8 V,,B2_N0,,,,
dataa[7],Input,PIN_K15,5,PIN_K15,,,B5_N0,,,,
dataa[6],Input,PIN_E16,6,PIN_E16,,,B6_N0,,,,
dataa[5],Input,PIN_E15,6,PIN_E15,,,B6_N0,,,,
dataa[4],Input,PIN_G16,6,PIN_G16,,,B6_N0,,,,
dataa[3],Input,PIN_F13,6,PIN_F13,,,B6_N0,,,,
dataa[2],Input,PIN_F15,6,PIN_F15,,,B6_N0,,,,
dataa[1],Input,PIN_B16,6,PIN_B16,,,B6_N0,,,,
dataa[0],Input,PIN_D16,6,PIN_D16,,,B6_N0,,,,
datab[7],Input,PIN_L14,5,PIN_L14,2.5 V,,B5_N0,,,,
datab[6],Input,PIN_J16,5,PIN_J16,2.5 V,,B5_N0,,,,
datab[5],Input,PIN_J15,5,PIN_J15,2.5 V,,B5_N0,,,,
datab[4],Input,PIN_J14,5,PIN_J14,2.5 V,,B5_N0,,,,
datab[3],Input,PIN_J13,5,PIN_J13,2.5 V,,B5_N0,,,,
datab[2],Input,PIN_M16,5,PIN_M16,2.5 V,,B5_N0,,,,
datab[1],Input,PIN_M15,5,PIN_M15,2.5 V,,B5_N0,,,,
datab[0],Input,PIN_G15,6,PIN_G15,2.5 V,,B6_N0,,,,
q[15],Output,PIN_N9,4,PIN_N9,2.5 V,,B4_N0,,,,
q[14],Output,PIN_R10,4,PIN_R10,2.5 V,,B4_N0,,,,
q[13],Output,PIN_T10,4,PIN_T10,2.5 V,,B4_N0,,,,
q[12],Output,PIN_R11,4,PIN_R11,2.5 V,,B4_N0,,,,
q[11],Output,PIN_T11,4,PIN_T11,2.5 V,,B4_N0,,,,
q[10],Output,PIN_R12,4,PIN_R12,2.5 V,,B4_N0,,,,
q[9],Output,PIN_T12,4,PIN_T12,2.5 V,,B4_N0,,,,
q[8],Output,PIN_P9,4,PIN_P9,2.5 V,,B4_N0,,,,
q[7],Output,PIN_R13,4,PIN_R13,2.5 V,,B4_N0,,,,
q[6],Output,PIN_T13,4,PIN_T13,2.5 V,,B4_N0,,,,
q[5],Output,PIN_M10,4,PIN_M10,2.5 V,,B4_N0,,,,
q[4],Output,PIN_N11,4,PIN_N11,2.5 V,,B4_N0,,,,
q[3],Output,PIN_T14,4,PIN_T14,2.5 V,,B4_N0,,,,
q[2],Output,PIN_T15,4,PIN_T15,2.5 V,,B4_N0,,,,
q[1],Output,PIN_N12,4,PIN_N12,2.5 V,,B4_N0,,,,
q[0],Output,PIN_P14,4,PIN_P14,2.5 V,,B4_N0,,,,
rdaddress[4],Input,PIN_K16,5,PIN_K16,2.5 V,,B5_N0,,,,
rdaddress[3],Input,PIN_L15,5,PIN_L15,2.5 V,,B5_N0,,,,
rdaddress[2],Input,PIN_L16,5,PIN_L16,2.5 V,,B5_N0,,,,
rdaddress[1],Input,PIN_L13,5,PIN_L13,2.5 V,,B5_N0,,,,
rdaddress[0],Input,PIN_N15,5,PIN_N15,2.5 V,,B5_N0,,,,
wraddress[4],Input,PIN_N16,5,PIN_N16,2.5 V,,B5_N0,,,,
wraddress[3],Input,PIN_R16,5,PIN_R16,2.5 V,,B5_N0,,,,
wraddress[2],Input,PIN_P16,5,PIN_P16,2.5 V,,B5_N0,,,,
wraddress[1],Input,PIN_P15,5,PIN_P15,2.5 V,,B5_N0,,,,
wraddress[0],Input,PIN_N14,5,PIN_N14,2.5 V,,B5_N0,,,,
wren,Input,PIN_M1,2,PIN_M1,1.8 V,,B2_N0,,,,
