/*
WARNING: Do NOT edit the input and output ports in this file in a text
editor if you plan to continue editing the block that represents it in
the Block Editor! File corruption is VERY likely to occur.
*/
/*
Copyright (C) 1991-2009 Altera Corporation
Your use of Altera Corporation's design tools, logic functions 
and other software and tools, and its AMPP partner logic 
functions, and any output files from any of the foregoing 
(including device programming or simulation files), and any 
associated documentation or information are expressly subject 
to the terms and conditions of the Altera Program License 
Subscription Agreement, Altera MegaCore Function License 
Agreement, or other applicable license agreement, including, 
without limitation, that your use is for the sole purpose of 
programming logic devices manufactured by Altera and sold by 
Altera or its authorized distributors.  Please refer to the 
applicable agreement for further details.
*/
//#pragma file_not_in_maxplusii_format
(header "graphic" (version "1.3"))
(pin
	(input)
	(rect 88 264 256 280)
	(text "INPUT" (rect 133 0 161 10)(font "Arial" (font_size 6)))
	(text "a" (rect 5 0 10 12)(font "Arial" ))
	(pt 168 8)
	(drawing
		(line (pt 92 12)(pt 117 12)(line_width 1))
		(line (pt 92 4)(pt 117 4)(line_width 1))
		(line (pt 121 8)(pt 168 8)(line_width 1))
		(line (pt 92 12)(pt 92 4)(line_width 1))
		(line (pt 117 4)(pt 121 8)(line_width 1))
		(line (pt 117 12)(pt 121 8)(line_width 1))
	)
	(text "VCC" (rect 136 7 156 17)(font "Arial" (font_size 6)))
)
(pin
	(input)
	(rect 88 280 256 296)
	(text "INPUT" (rect 133 0 161 10)(font "Arial" (font_size 6)))
	(text "b" (rect 5 0 10 12)(font "Arial" ))
	(pt 168 8)
	(drawing
		(line (pt 92 12)(pt 117 12)(line_width 1))
		(line (pt 92 4)(pt 117 4)(line_width 1))
		(line (pt 121 8)(pt 168 8)(line_width 1))
		(line (pt 92 12)(pt 92 4)(line_width 1))
		(line (pt 117 4)(pt 121 8)(line_width 1))
		(line (pt 117 12)(pt 121 8)(line_width 1))
	)
	(text "VCC" (rect 136 7 156 17)(font "Arial" (font_size 6)))
)
(pin
	(input)
	(rect 88 296 256 312)
	(text "INPUT" (rect 133 0 161 10)(font "Arial" (font_size 6)))
	(text "p" (rect 5 0 10 12)(font "Arial" ))
	(pt 168 8)
	(drawing
		(line (pt 92 12)(pt 117 12)(line_width 1))
		(line (pt 92 4)(pt 117 4)(line_width 1))
		(line (pt 121 8)(pt 168 8)(line_width 1))
		(line (pt 92 12)(pt 92 4)(line_width 1))
		(line (pt 117 4)(pt 121 8)(line_width 1))
		(line (pt 117 12)(pt 121 8)(line_width 1))
	)
	(text "VCC" (rect 136 7 156 17)(font "Arial" (font_size 6)))
)
(pin
	(output)
	(rect 552 152 728 168)
	(text "OUTPUT" (rect 1 0 39 10)(font "Arial" (font_size 6)))
	(text "S" (rect 90 0 97 12)(font "Arial" ))
	(pt 0 8)
	(drawing
		(line (pt 0 8)(pt 52 8)(line_width 1))
		(line (pt 52 4)(pt 78 4)(line_width 1))
		(line (pt 52 12)(pt 78 12)(line_width 1))
		(line (pt 52 12)(pt 52 4)(line_width 1))
		(line (pt 78 4)(pt 82 8)(line_width 1))
		(line (pt 82 8)(pt 78 12)(line_width 1))
		(line (pt 78 12)(pt 82 8)(line_width 1))
	)
)
(pin
	(output)
	(rect 544 320 720 336)
	(text "OUTPUT" (rect 1 0 39 10)(font "Arial" (font_size 6)))
	(text "pi" (rect 90 0 98 12)(font "Arial" ))
	(pt 0 8)
	(drawing
		(line (pt 0 8)(pt 52 8)(line_width 1))
		(line (pt 52 4)(pt 78 4)(line_width 1))
		(line (pt 52 12)(pt 78 12)(line_width 1))
		(line (pt 52 12)(pt 52 4)(line_width 1))
		(line (pt 78 4)(pt 82 8)(line_width 1))
		(line (pt 82 8)(pt 78 12)(line_width 1))
		(line (pt 78 12)(pt 82 8)(line_width 1))
	)
)
(symbol
	(rect 288 144 336 176)
	(text "NOT" (rect 1 0 21 10)(font "Arial" (font_size 6)))
	(text "Na" (rect 3 21 17 33)(font "Arial" ))
	(port
		(pt 0 16)
		(input)
		(text "IN" (rect 2 7 13 19)(font "Courier New" (bold))(invisible))
		(text "IN" (rect 2 7 13 19)(font "Courier New" (bold))(invisible))
		(line (pt 0 16)(pt 13 16)(line_width 1))
	)
	(port
		(pt 48 16)
		(output)
		(text "OUT" (rect 32 7 49 19)(font "Courier New" (bold))(invisible))
		(text "OUT" (rect 32 7 49 19)(font "Courier New" (bold))(invisible))
		(line (pt 39 16)(pt 48 16)(line_width 1))
	)
	(drawing
		(line (pt 13 25)(pt 13 7)(line_width 1))
		(line (pt 13 7)(pt 31 16)(line_width 1))
		(line (pt 13 25)(pt 31 16)(line_width 1))
		(circle (rect 31 12 39 20)(line_width 1))
	)
)
(symbol
	(rect 288 112 336 144)
	(text "NOT" (rect 1 0 21 10)(font "Arial" (font_size 6)))
	(text "Nb" (rect 3 21 17 33)(font "Arial" ))
	(port
		(pt 0 16)
		(input)
		(text "IN" (rect 2 7 13 19)(font "Courier New" (bold))(invisible))
		(text "IN" (rect 2 7 13 19)(font "Courier New" (bold))(invisible))
		(line (pt 0 16)(pt 13 16)(line_width 1))
	)
	(port
		(pt 48 16)
		(output)
		(text "OUT" (rect 32 7 49 19)(font "Courier New" (bold))(invisible))
		(text "OUT" (rect 32 7 49 19)(font "Courier New" (bold))(invisible))
		(line (pt 39 16)(pt 48 16)(line_width 1))
	)
	(drawing
		(line (pt 13 25)(pt 13 7)(line_width 1))
		(line (pt 13 7)(pt 31 16)(line_width 1))
		(line (pt 13 25)(pt 31 16)(line_width 1))
		(circle (rect 31 12 39 20)(line_width 1))
	)
)
(symbol
	(rect 288 80 336 112)
	(text "NOT" (rect 1 0 21 10)(font "Arial" (font_size 6)))
	(text "Np" (rect 3 21 17 33)(font "Arial" ))
	(port
		(pt 0 16)
		(input)
		(text "IN" (rect 2 7 13 19)(font "Courier New" (bold))(invisible))
		(text "IN" (rect 2 7 13 19)(font "Courier New" (bold))(invisible))
		(line (pt 0 16)(pt 13 16)(line_width 1))
	)
	(port
		(pt 48 16)
		(output)
		(text "OUT" (rect 32 7 49 19)(font "Courier New" (bold))(invisible))
		(text "OUT" (rect 32 7 49 19)(font "Courier New" (bold))(invisible))
		(line (pt 39 16)(pt 48 16)(line_width 1))
	)
	(drawing
		(line (pt 13 25)(pt 13 7)(line_width 1))
		(line (pt 13 7)(pt 31 16)(line_width 1))
		(line (pt 13 25)(pt 31 16)(line_width 1))
		(circle (rect 31 12 39 20)(line_width 1))
	)
)
(symbol
	(rect 392 256 456 304)
	(text "AND2" (rect 1 0 25 10)(font "Arial" (font_size 6)))
	(text "xANDab" (rect 3 37 44 49)(font "Arial" ))
	(port
		(pt 0 16)
		(input)
		(text "IN1" (rect 2 7 19 19)(font "Courier New" (bold))(invisible))
		(text "IN1" (rect 2 7 19 19)(font "Courier New" (bold))(invisible))
		(line (pt 0 16)(pt 14 16)(line_width 1))
	)
	(port
		(pt 0 32)
		(input)
		(text "IN2" (rect 2 23 19 35)(font "Courier New" (bold))(invisible))
		(text "IN2" (rect 2 23 19 35)(font "Courier New" (bold))(invisible))
		(line (pt 0 32)(pt 14 32)(line_width 1))
	)
	(port
		(pt 64 24)
		(output)
		(text "OUT" (rect 48 15 65 27)(font "Courier New" (bold))(invisible))
		(text "OUT" (rect 48 15 65 27)(font "Courier New" (bold))(invisible))
		(line (pt 42 24)(pt 64 24)(line_width 1))
	)
	(drawing
		(line (pt 14 12)(pt 30 12)(line_width 1))
		(line (pt 14 37)(pt 31 37)(line_width 1))
		(line (pt 14 12)(pt 14 37)(line_width 1))
		(arc (pt 31 37)(pt 30 12)(rect 18 12 43 37)(line_width 1))
	)
)
(symbol
	(rect 392 304 456 352)
	(text "AND2" (rect 1 0 25 10)(font "Arial" (font_size 6)))
	(text "yANDap" (rect 3 37 45 49)(font "Arial" ))
	(port
		(pt 0 16)
		(input)
		(text "IN1" (rect 2 7 19 19)(font "Courier New" (bold))(invisible))
		(text "IN1" (rect 2 7 19 19)(font "Courier New" (bold))(invisible))
		(line (pt 0 16)(pt 14 16)(line_width 1))
	)
	(port
		(pt 0 32)
		(input)
		(text "IN2" (rect 2 23 19 35)(font "Courier New" (bold))(invisible))
		(text "IN2" (rect 2 23 19 35)(font "Courier New" (bold))(invisible))
		(line (pt 0 32)(pt 14 32)(line_width 1))
	)
	(port
		(pt 64 24)
		(output)
		(text "OUT" (rect 48 15 65 27)(font "Courier New" (bold))(invisible))
		(text "OUT" (rect 48 15 65 27)(font "Courier New" (bold))(invisible))
		(line (pt 42 24)(pt 64 24)(line_width 1))
	)
	(drawing
		(line (pt 14 12)(pt 30 12)(line_width 1))
		(line (pt 14 37)(pt 31 37)(line_width 1))
		(line (pt 14 12)(pt 14 37)(line_width 1))
		(arc (pt 31 37)(pt 30 12)(rect 18 12 43 37)(line_width 1))
	)
)
(symbol
	(rect 392 352 456 400)
	(text "AND2" (rect 1 0 25 10)(font "Arial" (font_size 6)))
	(text "zANDbp" (rect 3 37 43 49)(font "Arial" ))
	(port
		(pt 0 16)
		(input)
		(text "IN1" (rect 2 7 19 19)(font "Courier New" (bold))(invisible))
		(text "IN1" (rect 2 7 19 19)(font "Courier New" (bold))(invisible))
		(line (pt 0 16)(pt 14 16)(line_width 1))
	)
	(port
		(pt 0 32)
		(input)
		(text "IN2" (rect 2 23 19 35)(font "Courier New" (bold))(invisible))
		(text "IN2" (rect 2 23 19 35)(font "Courier New" (bold))(invisible))
		(line (pt 0 32)(pt 14 32)(line_width 1))
	)
	(port
		(pt 64 24)
		(output)
		(text "OUT" (rect 48 15 65 27)(font "Courier New" (bold))(invisible))
		(text "OUT" (rect 48 15 65 27)(font "Courier New" (bold))(invisible))
		(line (pt 42 24)(pt 64 24)(line_width 1))
	)
	(drawing
		(line (pt 14 12)(pt 30 12)(line_width 1))
		(line (pt 14 37)(pt 31 37)(line_width 1))
		(line (pt 14 12)(pt 14 37)(line_width 1))
		(arc (pt 31 37)(pt 30 12)(rect 18 12 43 37)(line_width 1))
	)
)
(symbol
	(rect 472 304 536 352)
	(text "OR3" (rect 1 0 19 10)(font "Arial" (font_size 6)))
	(text "ORxyz" (rect 3 37 37 49)(font "Arial" ))
	(port
		(pt 0 24)
		(input)
		(text "IN2" (rect 2 15 19 27)(font "Courier New" (bold))(invisible))
		(text "IN2" (rect 2 15 19 27)(font "Courier New" (bold))(invisible))
		(line (pt 0 24)(pt 18 24)(line_width 1))
	)
	(port
		(pt 0 32)
		(input)
		(text "IN3" (rect 2 24 19 36)(font "Courier New" (bold))(invisible))
		(text "IN3" (rect 2 24 19 36)(font "Courier New" (bold))(invisible))
		(line (pt 0 32)(pt 16 32)(line_width 1))
	)
	(port
		(pt 0 16)
		(input)
		(text "IN1" (rect 2 7 19 19)(font "Courier New" (bold))(invisible))
		(text "IN1" (rect 2 7 19 19)(font "Courier New" (bold))(invisible))
		(line (pt 0 16)(pt 16 16)(line_width 1))
	)
	(port
		(pt 64 24)
		(output)
		(text "OUT" (rect 47 15 64 27)(font "Courier New" (bold))(invisible))
		(text "OUT" (rect 47 15 64 27)(font "Courier New" (bold))(invisible))
		(line (pt 49 24)(pt 64 24)(line_width 1))
	)
	(drawing
		(line (pt 14 13)(pt 25 13)(line_width 1))
		(line (pt 14 36)(pt 25 36)(line_width 1))
		(arc (pt 7 29)(pt 7 19)(rect -14 8 19 41)(line_width 1))
		(arc (pt 49 24)(pt 25 13)(rect -6 13 57 76)(line_width 1))
		(arc (pt 25 35)(pt 49 24)(rect -6 -27 57 36)(line_width 1))
	)
)
(symbol
	(rect 480 120 544 200)
	(text "OR4" (rect 1 0 19 10)(font "Arial" (font_size 6)))
	(text "ORklmn" (rect 3 69 43 81)(font "Arial" ))
	(port
		(pt 0 16)
		(input)
		(text "IN1" (rect 2 7 19 19)(font "Courier New" (bold))(invisible))
		(text "IN1" (rect 2 7 19 19)(font "Courier New" (bold))(invisible))
		(line (pt 0 16)(pt 13 16)(line_width 1))
	)
	(port
		(pt 0 48)
		(input)
		(text "IN3" (rect 2 39 19 51)(font "Courier New" (bold))(invisible))
		(text "IN3" (rect 2 39 19 51)(font "Courier New" (bold))(invisible))
		(line (pt 0 48)(pt 15 48)(line_width 1))
	)
	(port
		(pt 0 64)
		(input)
		(text "IN4" (rect 2 55 19 67)(font "Courier New" (bold))(invisible))
		(text "IN4" (rect 2 55 19 67)(font "Courier New" (bold))(invisible))
		(line (pt 0 64)(pt 13 64)(line_width 1))
	)
	(port
		(pt 0 32)
		(input)
		(text "IN2" (rect 2 23 19 35)(font "Courier New" (bold))(invisible))
		(text "IN2" (rect 2 23 19 35)(font "Courier New" (bold))(invisible))
		(line (pt 0 32)(pt 15 32)(line_width 1))
	)
	(port
		(pt 64 40)
		(output)
		(text "OUT" (rect 48 31 65 43)(font "Courier New" (bold))(invisible))
		(text "OUT" (rect 48 31 65 43)(font "Courier New" (bold))(invisible))
		(line (pt 48 40)(pt 64 40)(line_width 1))
	)
	(drawing
		(line (pt 13 67)(pt 13 51)(line_width 1))
		(line (pt 25 52)(pt 13 52)(line_width 1))
		(line (pt 13 12)(pt 13 29)(line_width 1))
		(line (pt 13 29)(pt 25 29)(line_width 1))
		(arc (pt 7 45)(pt 7 35)(rect -14 24 19 57)(line_width 1))
		(arc (pt 49 40)(pt 25 29)(rect -6 29 57 92)(line_width 1))
		(arc (pt 25 51)(pt 49 40)(rect -6 -11 57 52)(line_width 1))
	)
)
(symbol
	(rect 392 208 456 256)
	(text "AND3" (rect 1 0 25 10)(font "Arial" (font_size 6)))
	(text "nANDabp" (rect 3 37 50 49)(font "Arial" ))
	(port
		(pt 0 16)
		(input)
		(text "IN1" (rect 2 7 19 19)(font "Courier New" (bold))(invisible))
		(text "IN1" (rect 2 7 19 19)(font "Courier New" (bold))(invisible))
		(line (pt 0 16)(pt 16 16)(line_width 1))
	)
	(port
		(pt 0 24)
		(input)
		(text "IN2" (rect 2 15 19 27)(font "Courier New" (bold))(invisible))
		(text "IN2" (rect 2 15 19 27)(font "Courier New" (bold))(invisible))
		(line (pt 0 24)(pt 16 24)(line_width 1))
	)
	(port
		(pt 0 32)
		(input)
		(text "IN3" (rect 2 23 19 35)(font "Courier New" (bold))(invisible))
		(text "IN3" (rect 2 23 19 35)(font "Courier New" (bold))(invisible))
		(line (pt 0 32)(pt 16 32)(line_width 1))
	)
	(port
		(pt 64 24)
		(output)
		(text "OUT" (rect 48 15 65 27)(font "Courier New" (bold))(invisible))
		(text "OUT" (rect 48 15 65 27)(font "Courier New" (bold))(invisible))
		(line (pt 43 24)(pt 64 24)(line_width 1))
	)
	(drawing
		(line (pt 16 12)(pt 31 12)(line_width 1))
		(line (pt 16 37)(pt 31 37)(line_width 1))
		(line (pt 16 12)(pt 16 37)(line_width 1))
		(arc (pt 31 36)(pt 31 12)(rect 19 12 44 37)(line_width 1))
	)
)
(symbol
	(rect 392 64 456 112)
	(text "AND3" (rect 1 0 25 10)(font "Arial" (font_size 6)))
	(text "kANDaNbBp" (rect 3 37 65 49)(font "Arial" ))
	(port
		(pt 0 16)
		(input)
		(text "IN1" (rect 2 7 19 19)(font "Courier New" (bold))(invisible))
		(text "IN1" (rect 2 7 19 19)(font "Courier New" (bold))(invisible))
		(line (pt 0 16)(pt 16 16)(line_width 1))
	)
	(port
		(pt 0 24)
		(input)
		(text "IN2" (rect 2 15 19 27)(font "Courier New" (bold))(invisible))
		(text "IN2" (rect 2 15 19 27)(font "Courier New" (bold))(invisible))
		(line (pt 0 24)(pt 16 24)(line_width 1))
	)
	(port
		(pt 0 32)
		(input)
		(text "IN3" (rect 2 23 19 35)(font "Courier New" (bold))(invisible))
		(text "IN3" (rect 2 23 19 35)(font "Courier New" (bold))(invisible))
		(line (pt 0 32)(pt 16 32)(line_width 1))
	)
	(port
		(pt 64 24)
		(output)
		(text "OUT" (rect 48 15 65 27)(font "Courier New" (bold))(invisible))
		(text "OUT" (rect 48 15 65 27)(font "Courier New" (bold))(invisible))
		(line (pt 43 24)(pt 64 24)(line_width 1))
	)
	(drawing
		(line (pt 16 12)(pt 31 12)(line_width 1))
		(line (pt 16 37)(pt 31 37)(line_width 1))
		(line (pt 16 12)(pt 16 37)(line_width 1))
		(arc (pt 31 36)(pt 31 12)(rect 19 12 44 37)(line_width 1))
	)
)
(symbol
	(rect 392 112 456 160)
	(text "AND3" (rect 1 0 25 10)(font "Arial" (font_size 6)))
	(text "lANDNabNp" (rect 3 37 63 49)(font "Arial" ))
	(port
		(pt 0 16)
		(input)
		(text "IN1" (rect 2 7 19 19)(font "Courier New" (bold))(invisible))
		(text "IN1" (rect 2 7 19 19)(font "Courier New" (bold))(invisible))
		(line (pt 0 16)(pt 16 16)(line_width 1))
	)
	(port
		(pt 0 24)
		(input)
		(text "IN2" (rect 2 15 19 27)(font "Courier New" (bold))(invisible))
		(text "IN2" (rect 2 15 19 27)(font "Courier New" (bold))(invisible))
		(line (pt 0 24)(pt 16 24)(line_width 1))
	)
	(port
		(pt 0 32)
		(input)
		(text "IN3" (rect 2 23 19 35)(font "Courier New" (bold))(invisible))
		(text "IN3" (rect 2 23 19 35)(font "Courier New" (bold))(invisible))
		(line (pt 0 32)(pt 16 32)(line_width 1))
	)
	(port
		(pt 64 24)
		(output)
		(text "OUT" (rect 48 15 65 27)(font "Courier New" (bold))(invisible))
		(text "OUT" (rect 48 15 65 27)(font "Courier New" (bold))(invisible))
		(line (pt 43 24)(pt 64 24)(line_width 1))
	)
	(drawing
		(line (pt 16 12)(pt 31 12)(line_width 1))
		(line (pt 16 37)(pt 31 37)(line_width 1))
		(line (pt 16 12)(pt 16 37)(line_width 1))
		(arc (pt 31 36)(pt 31 12)(rect 19 12 44 37)(line_width 1))
	)
)
(symbol
	(rect 392 160 456 208)
	(text "AND3" (rect 1 0 25 10)(font "Arial" (font_size 6)))
	(text "mANDNaNbp" (rect 3 37 70 49)(font "Arial" ))
	(port
		(pt 0 16)
		(input)
		(text "IN1" (rect 2 7 19 19)(font "Courier New" (bold))(invisible))
		(text "IN1" (rect 2 7 19 19)(font "Courier New" (bold))(invisible))
		(line (pt 0 16)(pt 16 16)(line_width 1))
	)
	(port
		(pt 0 24)
		(input)
		(text "IN2" (rect 2 15 19 27)(font "Courier New" (bold))(invisible))
		(text "IN2" (rect 2 15 19 27)(font "Courier New" (bold))(invisible))
		(line (pt 0 24)(pt 16 24)(line_width 1))
	)
	(port
		(pt 0 32)
		(input)
		(text "IN3" (rect 2 23 19 35)(font "Courier New" (bold))(invisible))
		(text "IN3" (rect 2 23 19 35)(font "Courier New" (bold))(invisible))
		(line (pt 0 32)(pt 16 32)(line_width 1))
	)
	(port
		(pt 64 24)
		(output)
		(text "OUT" (rect 48 15 65 27)(font "Courier New" (bold))(invisible))
		(text "OUT" (rect 48 15 65 27)(font "Courier New" (bold))(invisible))
		(line (pt 43 24)(pt 64 24)(line_width 1))
	)
	(drawing
		(line (pt 16 12)(pt 31 12)(line_width 1))
		(line (pt 16 37)(pt 31 37)(line_width 1))
		(line (pt 16 12)(pt 16 37)(line_width 1))
		(arc (pt 31 36)(pt 31 12)(rect 19 12 44 37)(line_width 1))
	)
)
(connector
	(pt 480 136)
	(pt 472 136)
)
(connector
	(pt 472 136)
	(pt 472 88)
)
(connector
	(pt 456 88)
	(pt 472 88)
)
(connector
	(pt 456 136)
	(pt 464 136)
)
(connector
	(pt 464 136)
	(pt 464 152)
)
(connector
	(pt 480 152)
	(pt 464 152)
)
(connector
	(pt 456 184)
	(pt 464 184)
)
(connector
	(pt 464 184)
	(pt 464 168)
)
(connector
	(pt 480 168)
	(pt 464 168)
)
(connector
	(pt 480 184)
	(pt 472 184)
)
(connector
	(pt 456 232)
	(pt 472 232)
)
(connector
	(pt 472 184)
	(pt 472 232)
)
(connector
	(pt 544 160)
	(pt 552 160)
)
(connector
	(pt 392 88)
	(pt 368 88)
)
(connector
	(pt 392 144)
	(pt 376 144)
)
(connector
	(pt 376 96)
	(pt 376 144)
)
(connector
	(pt 392 128)
	(pt 384 128)
)
(connector
	(pt 392 176)
	(pt 384 176)
)
(connector
	(pt 392 184)
	(pt 368 184)
)
(connector
	(pt 456 328)
	(pt 472 328)
)
(connector
	(pt 456 280)
	(pt 464 280)
)
(connector
	(pt 464 280)
	(pt 464 320)
)
(connector
	(pt 472 320)
	(pt 464 320)
)
(connector
	(pt 472 336)
	(pt 464 336)
)
(connector
	(pt 464 336)
	(pt 464 376)
)
(connector
	(pt 456 376)
	(pt 464 376)
)
(connector
	(pt 536 328)
	(pt 544 328)
)
(connector
	(pt 392 240)
	(pt 384 240)
)
(connector
	(pt 392 232)
	(pt 376 232)
)
(connector
	(pt 376 232)
	(pt 376 288)
)
(connector
	(pt 392 224)
	(pt 368 224)
)
(connector
	(pt 368 224)
	(pt 368 272)
)
(connector
	(pt 392 192)
	(pt 360 192)
)
(connector
	(pt 392 136)
	(pt 352 136)
)
(connector
	(pt 352 136)
	(pt 352 288)
)
(connector
	(pt 360 192)
	(pt 360 304)
)
(connector
	(pt 392 80)
	(pt 344 80)
)
(connector
	(pt 344 80)
	(pt 344 272)
)
(connector
	(pt 368 128)
	(pt 336 128)
)
(connector
	(pt 384 160)
	(pt 336 160)
)
(connector
	(pt 392 320)
	(pt 280 320)
)
(connector
	(pt 392 368)
	(pt 272 368)
)
(connector
	(pt 392 384)
	(pt 264 384)
)
(connector
	(pt 288 160)
	(pt 280 160)
)
(connector
	(pt 336 96)
	(pt 376 96)
)
(connector
	(pt 376 96)
	(pt 392 96)
)
(connector
	(pt 368 88)
	(pt 368 128)
)
(connector
	(pt 368 128)
	(pt 368 184)
)
(connector
	(pt 384 128)
	(pt 384 160)
)
(connector
	(pt 384 160)
	(pt 384 176)
)
(connector
	(pt 368 272)
	(pt 392 272)
)
(connector
	(pt 344 272)
	(pt 368 272)
)
(connector
	(pt 280 160)
	(pt 280 272)
)
(connector
	(pt 280 272)
	(pt 280 320)
)
(connector
	(pt 376 288)
	(pt 392 288)
)
(connector
	(pt 352 288)
	(pt 376 288)
)
(connector
	(pt 272 128)
	(pt 272 288)
)
(connector
	(pt 272 288)
	(pt 272 368)
)
(connector
	(pt 384 240)
	(pt 384 304)
)
(connector
	(pt 360 304)
	(pt 384 304)
)
(connector
	(pt 264 96)
	(pt 264 304)
)
(connector
	(pt 272 128)
	(pt 288 128)
)
(connector
	(pt 264 96)
	(pt 288 96)
)
(connector
	(pt 256 272)
	(pt 280 272)
)
(connector
	(pt 280 272)
	(pt 344 272)
)
(connector
	(pt 256 288)
	(pt 272 288)
)
(connector
	(pt 272 288)
	(pt 352 288)
)
(connector
	(pt 256 304)
	(pt 264 304)
)
(connector
	(pt 264 304)
	(pt 360 304)
)
(connector
	(pt 264 336)
	(pt 392 336)
)
(connector
	(pt 264 304)
	(pt 264 336)
)
(connector
	(pt 264 336)
	(pt 264 384)
)
(junction (pt 376 96))
(junction (pt 384 160))
(junction (pt 368 128))
(junction (pt 376 288))
(junction (pt 368 272))
(junction (pt 344 272))
(junction (pt 352 288))
(junction (pt 360 304))
(junction (pt 280 272))
(junction (pt 272 288))
(junction (pt 264 304))
(junction (pt 264 336))
