/*
WARNING: Do NOT edit the input and output ports in this file in a text
editor if you plan to continue editing the block that represents it in
the Block Editor! File corruption is VERY likely to occur.
*/
/*
Copyright (C) 2017  Intel Corporation. All rights reserved.
Your use of Intel Corporation's design tools, logic functions 
and other software and tools, and its AMPP partner logic 
functions, and any output files from any of the foregoing 
(including device programming or simulation files), and any 
associated documentation or information are expressly subject 
to the terms and conditions of the Intel Program License 
Subscription Agreement, the Intel Quartus Prime License Agreement,
the Intel MegaCore Function License Agreement, or other 
applicable license agreement, including, without limitation, 
that your use is for the sole purpose of programming logic 
devices manufactured by Intel and sold by Intel or its 
authorized distributors.  Please refer to the applicable 
agreement for further details.
*/
(header "graphic" (version "1.4"))
(pin
	(input)
	(rect 8 416 176 432)
	(text "INPUT" (rect 125 0 153 10)(font "Arial" (font_size 6)))
	(text "clk" (rect 5 0 19 12)(font "Arial" ))
	(pt 168 8)
	(drawing
		(line (pt 84 12)(pt 109 12))
		(line (pt 84 4)(pt 109 4))
		(line (pt 113 8)(pt 168 8))
		(line (pt 84 12)(pt 84 4))
		(line (pt 109 4)(pt 113 8))
		(line (pt 109 12)(pt 113 8))
	)
	(text "VCC" (rect 128 7 148 17)(font "Arial" (font_size 6)))
)
(pin
	(output)
	(rect 1344 264 1520 280)
	(text "OUTPUT" (rect 1 0 39 10)(font "Arial" (font_size 6)))
	(text "LED[3..0]" (rect 90 0 132 17)(font "Intel Clear" ))
	(pt 0 8)
	(drawing
		(line (pt 0 8)(pt 52 8))
		(line (pt 52 4)(pt 78 4))
		(line (pt 52 12)(pt 78 12))
		(line (pt 52 12)(pt 52 4))
		(line (pt 78 4)(pt 82 8))
		(line (pt 82 8)(pt 78 12))
		(line (pt 78 12)(pt 82 8))
	)
)
(pin
	(output)
	(rect 1344 248 1520 264)
	(text "OUTPUT" (rect 1 0 39 10)(font "Arial" (font_size 6)))
	(text "LED[7..4]" (rect 90 0 137 12)(font "Arial" ))
	(pt 0 8)
	(drawing
		(line (pt 0 8)(pt 52 8))
		(line (pt 52 4)(pt 78 4))
		(line (pt 52 12)(pt 78 12))
		(line (pt 52 12)(pt 52 4))
		(line (pt 78 4)(pt 82 8))
		(line (pt 82 8)(pt 78 12))
		(line (pt 78 12)(pt 82 8))
	)
)
(symbol
	(rect 320 200 536 344)
	(text "mux_complx" (rect 5 0 67 12)(font "Arial" ))
	(text "inst" (rect 8 128 25 140)(font "Arial" ))
	(port
		(pt 0 32)
		(input)
		(text "A_in[15..0]" (rect 0 0 53 12)(font "Arial" ))
		(text "A_in[15..0]" (rect 21 27 74 39)(font "Arial" ))
		(line (pt 0 32)(pt 16 32)(line_width 3))
	)
	(port
		(pt 0 48)
		(input)
		(text "B_in[15..0]" (rect 0 0 53 12)(font "Arial" ))
		(text "B_in[15..0]" (rect 21 43 74 55)(font "Arial" ))
		(line (pt 0 48)(pt 16 48)(line_width 3))
	)
	(port
		(pt 0 64)
		(input)
		(text "iA_in[15..0]" (rect 0 0 55 12)(font "Arial" ))
		(text "iA_in[15..0]" (rect 21 59 76 71)(font "Arial" ))
		(line (pt 0 64)(pt 16 64)(line_width 3))
	)
	(port
		(pt 0 80)
		(input)
		(text "iB_in[15..0]" (rect 0 0 55 12)(font "Arial" ))
		(text "iB_in[15..0]" (rect 21 75 76 87)(font "Arial" ))
		(line (pt 0 80)(pt 16 80)(line_width 3))
	)
	(port
		(pt 0 96)
		(input)
		(text "complx_control" (rect 0 0 74 12)(font "Arial" ))
		(text "complx_control" (rect 21 91 95 103)(font "Arial" ))
		(line (pt 0 96)(pt 16 96))
	)
	(port
		(pt 216 32)
		(output)
		(text "A_out[15..0]" (rect 0 0 60 12)(font "Arial" ))
		(text "A_out[15..0]" (rect 145 27 205 39)(font "Arial" ))
		(line (pt 216 32)(pt 200 32)(line_width 3))
	)
	(port
		(pt 216 48)
		(output)
		(text "B_out[15..0]" (rect 0 0 60 12)(font "Arial" ))
		(text "B_out[15..0]" (rect 145 43 205 55)(font "Arial" ))
		(line (pt 216 48)(pt 200 48)(line_width 3))
	)
	(port
		(pt 216 64)
		(output)
		(text "iA_out[15..0]" (rect 0 0 62 12)(font "Arial" ))
		(text "iA_out[15..0]" (rect 143 59 205 71)(font "Arial" ))
		(line (pt 216 64)(pt 200 64)(line_width 3))
	)
	(port
		(pt 216 80)
		(output)
		(text "iB_out[15..0]" (rect 0 0 62 12)(font "Arial" ))
		(text "iB_out[15..0]" (rect 143 75 205 87)(font "Arial" ))
		(line (pt 216 80)(pt 200 80)(line_width 3))
	)
	(drawing
		(rectangle (rect 16 16 200 128))
	)
)
(symbol
	(rect 720 32 920 176)
	(text "Addition" (rect 5 0 43 12)(font "Arial" ))
	(text "inst27" (rect 8 128 36 145)(font "Intel Clear" ))
	(port
		(pt 0 32)
		(input)
		(text "A_in[15..0]" (rect 0 0 53 12)(font "Arial" ))
		(text "A_in[15..0]" (rect 21 27 74 39)(font "Arial" ))
		(line (pt 0 32)(pt 16 32)(line_width 3))
	)
	(port
		(pt 0 48)
		(input)
		(text "B_in[15..0]" (rect 0 0 53 12)(font "Arial" ))
		(text "B_in[15..0]" (rect 21 43 74 55)(font "Arial" ))
		(line (pt 0 48)(pt 16 48)(line_width 3))
	)
	(port
		(pt 0 64)
		(input)
		(text "iA_in[15..0]" (rect 0 0 55 12)(font "Arial" ))
		(text "iA_in[15..0]" (rect 21 59 76 71)(font "Arial" ))
		(line (pt 0 64)(pt 16 64)(line_width 3))
	)
	(port
		(pt 0 80)
		(input)
		(text "iB_in[15..0]" (rect 0 0 55 12)(font "Arial" ))
		(text "iB_in[15..0]" (rect 21 75 76 87)(font "Arial" ))
		(line (pt 0 80)(pt 16 80)(line_width 3))
	)
	(port
		(pt 0 96)
		(input)
		(text "clk" (rect 0 0 14 12)(font "Arial" ))
		(text "clk" (rect 21 91 35 103)(font "Arial" ))
		(line (pt 0 96)(pt 16 96))
	)
	(port
		(pt 200 32)
		(output)
		(text "AB_out[15..0]" (rect 0 0 67 12)(font "Arial" ))
		(text "AB_out[15..0]" (rect 123 27 190 39)(font "Arial" ))
		(line (pt 200 32)(pt 184 32)(line_width 3))
	)
	(port
		(pt 200 48)
		(output)
		(text "iAB_out[15..0]" (rect 0 0 69 12)(font "Arial" ))
		(text "iAB_out[15..0]" (rect 121 43 190 55)(font "Arial" ))
		(line (pt 200 48)(pt 184 48)(line_width 3))
	)
	(drawing
		(rectangle (rect 16 16 184 128))
	)
)
(symbol
	(rect 720 200 920 344)
	(text "Substract" (rect 5 0 52 12)(font "Arial" ))
	(text "inst28" (rect 8 128 36 145)(font "Intel Clear" ))
	(port
		(pt 0 32)
		(input)
		(text "A_in[15..0]" (rect 0 0 53 12)(font "Arial" ))
		(text "A_in[15..0]" (rect 21 27 74 39)(font "Arial" ))
		(line (pt 0 32)(pt 16 32)(line_width 3))
	)
	(port
		(pt 0 48)
		(input)
		(text "B_in[15..0]" (rect 0 0 53 12)(font "Arial" ))
		(text "B_in[15..0]" (rect 21 43 74 55)(font "Arial" ))
		(line (pt 0 48)(pt 16 48)(line_width 3))
	)
	(port
		(pt 0 64)
		(input)
		(text "iA_in[15..0]" (rect 0 0 55 12)(font "Arial" ))
		(text "iA_in[15..0]" (rect 21 59 76 71)(font "Arial" ))
		(line (pt 0 64)(pt 16 64)(line_width 3))
	)
	(port
		(pt 0 80)
		(input)
		(text "iB_in[15..0]" (rect 0 0 55 12)(font "Arial" ))
		(text "iB_in[15..0]" (rect 21 75 76 87)(font "Arial" ))
		(line (pt 0 80)(pt 16 80)(line_width 3))
	)
	(port
		(pt 0 96)
		(input)
		(text "clk" (rect 0 0 14 12)(font "Arial" ))
		(text "clk" (rect 21 91 35 103)(font "Arial" ))
		(line (pt 0 96)(pt 16 96))
	)
	(port
		(pt 200 32)
		(output)
		(text "AB_out[15..0]" (rect 0 0 67 12)(font "Arial" ))
		(text "AB_out[15..0]" (rect 123 27 190 39)(font "Arial" ))
		(line (pt 200 32)(pt 184 32)(line_width 3))
	)
	(port
		(pt 200 48)
		(output)
		(text "iAB_out[15..0]" (rect 0 0 69 12)(font "Arial" ))
		(text "iAB_out[15..0]" (rect 121 43 190 55)(font "Arial" ))
		(line (pt 200 48)(pt 184 48)(line_width 3))
	)
	(drawing
		(rectangle (rect 16 16 184 128))
	)
)
(symbol
	(rect 720 360 920 504)
	(text "Multiplication" (rect 5 0 67 12)(font "Arial" ))
	(text "inst29" (rect 8 128 36 145)(font "Intel Clear" ))
	(port
		(pt 0 32)
		(input)
		(text "A_in[15..0]" (rect 0 0 53 12)(font "Arial" ))
		(text "A_in[15..0]" (rect 21 27 74 39)(font "Arial" ))
		(line (pt 0 32)(pt 16 32)(line_width 3))
	)
	(port
		(pt 0 48)
		(input)
		(text "B_in[15..0]" (rect 0 0 53 12)(font "Arial" ))
		(text "B_in[15..0]" (rect 21 43 74 55)(font "Arial" ))
		(line (pt 0 48)(pt 16 48)(line_width 3))
	)
	(port
		(pt 0 64)
		(input)
		(text "iA_in[15..0]" (rect 0 0 55 12)(font "Arial" ))
		(text "iA_in[15..0]" (rect 21 59 76 71)(font "Arial" ))
		(line (pt 0 64)(pt 16 64)(line_width 3))
	)
	(port
		(pt 0 80)
		(input)
		(text "iB_in[15..0]" (rect 0 0 55 12)(font "Arial" ))
		(text "iB_in[15..0]" (rect 21 75 76 87)(font "Arial" ))
		(line (pt 0 80)(pt 16 80)(line_width 3))
	)
	(port
		(pt 0 96)
		(input)
		(text "complx" (rect 0 0 35 12)(font "Arial" ))
		(text "complx" (rect 21 91 56 103)(font "Arial" ))
		(line (pt 0 96)(pt 16 96))
	)
	(port
		(pt 0 112)
		(input)
		(text "clk" (rect 0 0 14 12)(font "Arial" ))
		(text "clk" (rect 21 107 35 119)(font "Arial" ))
		(line (pt 0 112)(pt 16 112))
	)
	(port
		(pt 200 32)
		(output)
		(text "AB_out[15..0]" (rect 0 0 67 12)(font "Arial" ))
		(text "AB_out[15..0]" (rect 123 27 190 39)(font "Arial" ))
		(line (pt 200 32)(pt 184 32)(line_width 3))
	)
	(port
		(pt 200 48)
		(output)
		(text "iAB_out[15..0]" (rect 0 0 69 12)(font "Arial" ))
		(text "iAB_out[15..0]" (rect 121 43 190 55)(font "Arial" ))
		(line (pt 200 48)(pt 184 48)(line_width 3))
	)
	(drawing
		(rectangle (rect 16 16 184 128))
	)
)
(symbol
	(rect 720 520 920 664)
	(text "Division" (rect 5 0 45 12)(font "Arial" ))
	(text "inst31" (rect 8 128 36 145)(font "Intel Clear" ))
	(port
		(pt 0 32)
		(input)
		(text "A_in[15..0]" (rect 0 0 53 12)(font "Arial" ))
		(text "A_in[15..0]" (rect 21 27 74 39)(font "Arial" ))
		(line (pt 0 32)(pt 16 32)(line_width 3))
	)
	(port
		(pt 0 48)
		(input)
		(text "B_in[15..0]" (rect 0 0 53 12)(font "Arial" ))
		(text "B_in[15..0]" (rect 21 43 74 55)(font "Arial" ))
		(line (pt 0 48)(pt 16 48)(line_width 3))
	)
	(port
		(pt 0 64)
		(input)
		(text "iA_in[15..0]" (rect 0 0 55 12)(font "Arial" ))
		(text "iA_in[15..0]" (rect 21 59 76 71)(font "Arial" ))
		(line (pt 0 64)(pt 16 64)(line_width 3))
	)
	(port
		(pt 0 80)
		(input)
		(text "iB_in[15..0]" (rect 0 0 55 12)(font "Arial" ))
		(text "iB_in[15..0]" (rect 21 75 76 87)(font "Arial" ))
		(line (pt 0 80)(pt 16 80)(line_width 3))
	)
	(port
		(pt 0 96)
		(input)
		(text "complx" (rect 0 0 35 12)(font "Arial" ))
		(text "complx" (rect 21 91 56 103)(font "Arial" ))
		(line (pt 0 96)(pt 16 96))
	)
	(port
		(pt 0 112)
		(input)
		(text "clk" (rect 0 0 14 12)(font "Arial" ))
		(text "clk" (rect 21 107 35 119)(font "Arial" ))
		(line (pt 0 112)(pt 16 112))
	)
	(port
		(pt 200 32)
		(output)
		(text "AB_out[15..0]" (rect 0 0 67 12)(font "Arial" ))
		(text "AB_out[15..0]" (rect 123 27 190 39)(font "Arial" ))
		(line (pt 200 32)(pt 184 32)(line_width 3))
	)
	(port
		(pt 200 48)
		(output)
		(text "iAB_out[15..0]" (rect 0 0 69 12)(font "Arial" ))
		(text "iAB_out[15..0]" (rect 121 43 190 55)(font "Arial" ))
		(line (pt 200 48)(pt 184 48)(line_width 3))
	)
	(drawing
		(rectangle (rect 16 16 184 128))
	)
)
(symbol
	(rect 1032 168 1256 376)
	(text "mux_math" (rect 5 0 56 12)(font "Arial" ))
	(text "inst10" (rect 8 192 37 204)(font "Arial" ))
	(port
		(pt 0 32)
		(input)
		(text "add_AB[15..0]" (rect 0 0 69 12)(font "Arial" ))
		(text "add_AB[15..0]" (rect 21 27 90 39)(font "Arial" ))
		(line (pt 0 32)(pt 16 32)(line_width 3))
	)
	(port
		(pt 0 48)
		(input)
		(text "add_iAB[15..0]" (rect 0 0 71 12)(font "Arial" ))
		(text "add_iAB[15..0]" (rect 21 43 92 55)(font "Arial" ))
		(line (pt 0 48)(pt 16 48)(line_width 3))
	)
	(port
		(pt 0 64)
		(input)
		(text "sub_AB[15..0]" (rect 0 0 69 12)(font "Arial" ))
		(text "sub_AB[15..0]" (rect 21 59 90 71)(font "Arial" ))
		(line (pt 0 64)(pt 16 64)(line_width 3))
	)
	(port
		(pt 0 80)
		(input)
		(text "sub_iAB[15..0]" (rect 0 0 71 12)(font "Arial" ))
		(text "sub_iAB[15..0]" (rect 21 75 92 87)(font "Arial" ))
		(line (pt 0 80)(pt 16 80)(line_width 3))
	)
	(port
		(pt 0 96)
		(input)
		(text "mul_AB[15..0]" (rect 0 0 69 12)(font "Arial" ))
		(text "mul_AB[15..0]" (rect 21 91 90 103)(font "Arial" ))
		(line (pt 0 96)(pt 16 96)(line_width 3))
	)
	(port
		(pt 0 112)
		(input)
		(text "mul_iAB[15..0]" (rect 0 0 71 12)(font "Arial" ))
		(text "mul_iAB[15..0]" (rect 21 107 92 119)(font "Arial" ))
		(line (pt 0 112)(pt 16 112)(line_width 3))
	)
	(port
		(pt 0 128)
		(input)
		(text "div_AB[15..0]" (rect 0 0 67 12)(font "Arial" ))
		(text "div_AB[15..0]" (rect 21 123 88 135)(font "Arial" ))
		(line (pt 0 128)(pt 16 128)(line_width 3))
	)
	(port
		(pt 0 144)
		(input)
		(text "div_iAB[15..0]" (rect 0 0 69 12)(font "Arial" ))
		(text "div_iAB[15..0]" (rect 21 139 90 151)(font "Arial" ))
		(line (pt 0 144)(pt 16 144)(line_width 3))
	)
	(port
		(pt 0 160)
		(input)
		(text "mux_control[1..0]" (rect 0 0 86 12)(font "Arial" ))
		(text "mux_control[1..0]" (rect 21 155 107 167)(font "Arial" ))
		(line (pt 0 160)(pt 16 160)(line_width 3))
	)
	(port
		(pt 0 176)
		(input)
		(text "clk" (rect 0 0 14 12)(font "Arial" ))
		(text "clk" (rect 21 171 35 183)(font "Arial" ))
		(line (pt 0 176)(pt 16 176))
	)
	(port
		(pt 224 32)
		(output)
		(text "AB_out[15..0]" (rect 0 0 67 12)(font "Arial" ))
		(text "AB_out[15..0]" (rect 147 27 214 39)(font "Arial" ))
		(line (pt 224 32)(pt 208 32)(line_width 3))
	)
	(port
		(pt 224 48)
		(output)
		(text "iAB_out[15..0]" (rect 0 0 69 12)(font "Arial" ))
		(text "iAB_out[15..0]" (rect 145 43 214 55)(font "Arial" ))
		(line (pt 224 48)(pt 208 48)(line_width 3))
	)
	(drawing
		(rectangle (rect 16 16 208 192))
	)
)
(symbol
	(rect 48 200 232 344)
	(text "generator" (rect 5 0 51 12)(font "Arial" ))
	(text "inst102" (rect 8 128 43 140)(font "Arial" ))
	(port
		(pt 0 32)
		(input)
		(text "clk" (rect 0 0 14 12)(font "Arial" ))
		(text "clk" (rect 21 27 35 39)(font "Arial" ))
		(line (pt 0 32)(pt 16 32))
	)
	(port
		(pt 184 32)
		(output)
		(text "A_in[15..0]" (rect 0 0 53 12)(font "Arial" ))
		(text "A_in[15..0]" (rect 119 27 172 39)(font "Arial" ))
		(line (pt 184 32)(pt 168 32)(line_width 3))
	)
	(port
		(pt 184 48)
		(output)
		(text "B_in[15..0]" (rect 0 0 53 12)(font "Arial" ))
		(text "B_in[15..0]" (rect 119 43 172 55)(font "Arial" ))
		(line (pt 184 48)(pt 168 48)(line_width 3))
	)
	(port
		(pt 184 64)
		(output)
		(text "iA_in[15..0]" (rect 0 0 55 12)(font "Arial" ))
		(text "iA_in[15..0]" (rect 117 59 172 71)(font "Arial" ))
		(line (pt 184 64)(pt 168 64)(line_width 3))
	)
	(port
		(pt 184 80)
		(output)
		(text "iB_in[15..0]" (rect 0 0 55 12)(font "Arial" ))
		(text "iB_in[15..0]" (rect 117 75 172 87)(font "Arial" ))
		(line (pt 184 80)(pt 168 80)(line_width 3))
	)
	(port
		(pt 184 96)
		(output)
		(text "complx_control" (rect 0 0 74 12)(font "Arial" ))
		(text "complx_control" (rect 101 91 175 103)(font "Arial" ))
		(line (pt 184 96)(pt 168 96))
	)
	(port
		(pt 184 112)
		(output)
		(text "math_control[1..0]" (rect 0 0 89 12)(font "Arial" ))
		(text "math_control[1..0]" (rect 88 107 177 119)(font "Arial" ))
		(line (pt 184 112)(pt 168 112)(line_width 3))
	)
	(drawing
		(rectangle (rect 16 16 168 128))
	)
)
(connector
	(pt 720 64)
	(pt 608 64)
	(bus)
)
(connector
	(pt 720 80)
	(pt 624 80)
	(bus)
)
(connector
	(pt 720 96)
	(pt 640 96)
	(bus)
)
(connector
	(pt 720 112)
	(pt 656 112)
	(bus)
)
(connector
	(pt 720 392)
	(pt 608 392)
	(bus)
)
(connector
	(pt 720 408)
	(pt 624 408)
	(bus)
)
(connector
	(pt 720 424)
	(pt 640 424)
	(bus)
)
(connector
	(pt 720 440)
	(pt 656 440)
	(bus)
)
(connector
	(pt 568 128)
	(pt 720 128)
)
(connector
	(pt 720 296)
	(pt 568 296)
)
(connector
	(pt 568 128)
	(pt 568 296)
)
(connector
	(pt 720 472)
	(pt 568 472)
)
(connector
	(pt 608 552)
	(pt 720 552)
	(bus)
)
(connector
	(pt 624 568)
	(pt 720 568)
	(bus)
)
(connector
	(pt 640 584)
	(pt 720 584)
	(bus)
)
(connector
	(pt 656 600)
	(pt 720 600)
	(bus)
)
(connector
	(pt 568 632)
	(pt 720 632)
)
(connector
	(pt 608 392)
	(pt 608 552)
	(bus)
)
(connector
	(pt 624 408)
	(pt 624 568)
	(bus)
)
(connector
	(pt 640 424)
	(pt 640 584)
	(bus)
)
(connector
	(pt 656 440)
	(pt 656 600)
	(bus)
)
(connector
	(pt 720 456)
	(pt 304 456)
)
(connector
	(pt 720 616)
	(pt 304 616)
)
(connector
	(pt 656 112)
	(pt 656 280)
	(bus)
)
(connector
	(pt 656 280)
	(pt 656 440)
	(bus)
)
(connector
	(pt 536 280)
	(pt 656 280)
	(bus)
)
(connector
	(pt 656 280)
	(pt 720 280)
	(bus)
)
(connector
	(pt 608 64)
	(pt 608 232)
	(bus)
)
(connector
	(pt 608 232)
	(pt 608 392)
	(bus)
)
(connector
	(pt 536 232)
	(pt 608 232)
	(bus)
)
(connector
	(pt 608 232)
	(pt 720 232)
	(bus)
)
(connector
	(pt 624 80)
	(pt 624 248)
	(bus)
)
(connector
	(pt 624 248)
	(pt 624 408)
	(bus)
)
(connector
	(pt 536 248)
	(pt 624 248)
	(bus)
)
(connector
	(pt 624 248)
	(pt 720 248)
	(bus)
)
(connector
	(pt 640 96)
	(pt 640 264)
	(bus)
)
(connector
	(pt 640 264)
	(pt 640 424)
	(bus)
)
(connector
	(pt 536 264)
	(pt 640 264)
	(bus)
)
(connector
	(pt 640 264)
	(pt 720 264)
	(bus)
)
(connector
	(pt 304 456)
	(pt 304 616)
)
(connector
	(pt 920 64)
	(pt 1000 64)
	(bus)
)
(connector
	(pt 920 80)
	(pt 984 80)
	(bus)
)
(connector
	(pt 920 392)
	(pt 936 392)
	(bus)
)
(connector
	(pt 920 408)
	(pt 952 408)
	(bus)
)
(connector
	(pt 984 80)
	(pt 984 216)
	(bus)
)
(connector
	(pt 1000 64)
	(pt 1000 200)
	(bus)
)
(connector
	(pt 952 408)
	(pt 952 280)
	(bus)
)
(connector
	(pt 936 392)
	(pt 936 264)
	(bus)
)
(connector
	(pt 984 568)
	(pt 984 312)
	(bus)
)
(connector
	(pt 968 552)
	(pt 968 296)
	(bus)
)
(connector
	(pt 1016 696)
	(pt 1016 344)
)
(connector
	(pt 568 696)
	(pt 1016 696)
)
(connector
	(pt 920 552)
	(pt 968 552)
	(bus)
)
(connector
	(pt 920 568)
	(pt 984 568)
	(bus)
)
(connector
	(pt 288 680)
	(pt 1000 680)
	(bus)
)
(connector
	(pt 1000 328)
	(pt 1000 680)
	(bus)
)
(connector
	(pt 568 472)
	(pt 568 632)
)
(connector
	(pt 568 632)
	(pt 568 696)
)
(connector
	(pt 1000 200)
	(pt 1032 200)
	(bus)
)
(connector
	(pt 984 216)
	(pt 1032 216)
	(bus)
)
(connector
	(pt 920 232)
	(pt 1032 232)
	(bus)
)
(connector
	(pt 920 248)
	(pt 1032 248)
	(bus)
)
(connector
	(pt 936 264)
	(pt 1032 264)
	(bus)
)
(connector
	(pt 952 280)
	(pt 1032 280)
	(bus)
)
(connector
	(pt 968 296)
	(pt 1032 296)
	(bus)
)
(connector
	(pt 984 312)
	(pt 1032 312)
	(bus)
)
(connector
	(pt 1000 328)
	(pt 1032 328)
	(bus)
)
(connector
	(pt 1016 344)
	(pt 1032 344)
)
(connector
	(pt 288 312)
	(pt 232 312)
	(bus)
)
(connector
	(pt 232 296)
	(pt 304 296)
)
(connector
	(pt 304 296)
	(pt 320 296)
)
(connector
	(pt 568 296)
	(pt 568 368)
)
(connector
	(pt 568 368)
	(pt 568 472)
)
(connector
	(pt 32 232)
	(pt 48 232)
)
(connector
	(pt 32 232)
	(pt 32 368)
)
(connector
	(pt 184 424)
	(pt 176 424)
)
(connector
	(pt 184 368)
	(pt 184 424)
)
(connector
	(pt 32 368)
	(pt 184 368)
)
(connector
	(pt 184 368)
	(pt 568 368)
)
(connector
	(text "AB[15..0]" (rect 1266 184 1309 201)(font "Intel Clear" ))
	(pt 1256 200)
	(pt 1336 200)
	(bus)
)
(connector
	(text "iAB[15..0]" (rect 1266 200 1312 217)(font "Intel Clear" ))
	(pt 1256 216)
	(pt 1336 216)
	(bus)
)
(connector
	(text "AB[3..0]" (rect 1290 240 1327 257)(font "Intel Clear" ))
	(pt 1280 256)
	(pt 1344 256)
	(bus)
)
(connector
	(text "iAB[3..0]" (rect 1290 256 1330 273)(font "Intel Clear" ))
	(pt 1344 272)
	(pt 1280 272)
	(bus)
)
(connector
	(pt 232 280)
	(pt 320 280)
	(bus)
)
(connector
	(pt 232 264)
	(pt 320 264)
	(bus)
)
(connector
	(pt 232 248)
	(pt 320 248)
	(bus)
)
(connector
	(pt 232 232)
	(pt 320 232)
	(bus)
)
(connector
	(pt 304 296)
	(pt 304 456)
)
(connector
	(pt 288 312)
	(pt 288 680)
	(bus)
)
(junction (pt 608 232))
(junction (pt 624 248))
(junction (pt 640 264))
(junction (pt 656 280))
(junction (pt 608 392))
(junction (pt 624 408))
(junction (pt 640 424))
(junction (pt 656 440))
(junction (pt 568 296))
(junction (pt 568 368))
(junction (pt 568 472))
(junction (pt 568 632))
(junction (pt 304 456))
(junction (pt 304 296))
(junction (pt 184 368))
