[Main]
FileType=CIR
Version=11.01
Program=Micro-Cap
Component Version=10.00
Shape Version=11.00
Screen=1376,774
MCAPVersion=11.0.3.2
Key ID=Demo
NLCnt=40
TXCnt=6

[shapedef]
Name=And2
Root="And.root",0,0,0

[shapedef]
Name=And.root
Line=0,0,9,0
Line=0,16,9,16
Line=9,20,9,-4
Line=27,20,9,20
Line=9,-4,27,-4
Line=40,8,48,8
Arc=12,-4,40,20 , 28,32,28,-16

[shapedef]
Name=DFF
Rectangle=0,-8,64,56
FColor=None
Line=-8,0,0,0
Ellipse=30,-12,34,-8
FColor=None
Ellipse=30,56,34,60
FColor=None
Ellipse=64,46,68,50
FColor=None
Line=68,48,72,48
Line=0,24,-8,24
Line=0,16,8,24
Line=8,24,0,32
Line=64,0,72,0
Line=32,60,32,72
Line=32,-12,32,-24

[shapedef]
Name=Ground
Line=0,0,12,0
Line=12,-8,12,8
Line=18,-4,18,4
Line=24,0,24,0

[shapedef]
Name=Plus.root
Line=-2,0,2,0
Line=0,-2,0,2

[shapedef]
Name=SPICE_V
Root="Vsource.root",0,0,0

[shapedef]
Name=Tie
Line=0,0,7,0
Line=7,-8,7,8

[shapedef]
Name=Vsource.root
Line=0,0,12,0
Line=36,0,48,0
Ellipse=12,-12,36,12
FColor=None
Line=7,5,7,9
Root="Plus.root",41,7,0
Current=32,16,16,16

[shapedef]
Name=Battery_Euro_1
Line=27,-12,27,12
Line=27,0,48,0
Line=0,0,22,0
Root="Minus.root",17,8,0
Root="Plus.root",32,8,0
Rectangle=21,-5,24,5

[shapedef]
Name=Minus.root
Line=-2,0,2,0

[shapedef]
Name=Plus.root
Line=-2,0,2,0
Line=0,-2,0,2

[compdef]
Name=Battery1
Definition=Battery
Shape=Battery_Euro_1
Mask=4609
Used=17
Label Offset=19,7,10,13
PinCnt=2
Pin="Plus",6,0,-4,-5
Pin="Minus",0,0,-10,-5

[compdef]
Name=Ground
Definition=Ground
Shape=Ground
Mask=1793
Used=246
memo=Ground
Label Offset=0,0,0,0
PinCnt=1
Pin="PinA",0,0,-3,-7

[compdef]
Name=Voltage Source
Definition=VSpice
Shape=SPICE_V
Mask=4865
Used=30
memo=Voltage Source
Label Offset=19,13,15,13
PinCnt=2
Pin="Plus",6,0,-5,-6
Pin="Minus",0,0,-20,-6

[compdef]
Name=DFF
Definition=DFF
Shape=DFF
Mask=20483
Used=2
Data1=1
memo=Generic D Flip-Flop
Label Offset=46,10,-31,49
PinCnt=6
Pin="PREB",4,-3,-14,31
Pin="CLRB",4,9,-15,-17
Pin="CLK",-1,3,19,7
Pin="D",-1,0,12,7
Pin="Q",9,0,-18,7
Pin="QB",9,6,-25,7

[compdef]
Name=And2
Definition=AND
Shape=And2
Mask=4867
Used=2
Data1=2
memo=2 Input Generic AND Gate
Label Offset=12,21,8,8
PinCnt=3
Pin="In0",0,0,-6,-1
Pin="In1",0,2,-6,-1
Pin="Out",6,1,-7,-1

[compdef]
Name=Tie
Definition=Tie
Shape=Tie
Mask=5632
Used=35
memo=Ties two nodes together
Label Offset=11,-6,-6,8
PinCnt=1
Pin="PinA",0,0,-7,-9

[TitleBlockDef]
Name=DefaultOld
Rectangle=-24,-25,232,76
FColor=None
Text="#Field1"
TextInfo=-20,-21,28,-3 , -15,0,"Arial"
Text="#Field2"
TextInfo=-20,2,9,13 , -8,0,"Arial"
Text="#Field3"
TextInfo=-20,20,7,31 , -8,0,"Arial"
Text="#Field4"
TextInfo=-20,41,9,52 , -8,0,"Arial"
Text="#Field5"
TextInfo=-20,60,7,71 , -8,0,"Arial"
Line=-24,16,232,16
Line=-24,56,232,56
Line=-24,36,232,36

[Circuit]
Window Placement=2,3, -1,-1, -8,-31, 50,50,996,520
Default Object=Color=#000080
Default Object Font=Height=-15,FStyle=0,Color=#000080,Name=Arial
Default Object Apply Border To Text=No
Default Object Apply Fill To Text=No
NodeVoltageFormat=3
PathDelayFormat=3
WarningFormat=3
GridTextFormulaFormat=3
Window Placement in Transient Analysis=2,3, -1,-1, -8,-31, 75,75,1241,549
Window Placement in AC Analysis=2,3, -1,-1, -8,-31, 130,130,1252,519
Window Placement in DC Analysis=2,3, -1,-1, -8,-31, 104,104,1226,493
SpiceType=AMBIGUOUS
Title_Block_Border=None
Title_Block=False
Show Nodes=False
Show Voltages=False
Show Current=False
Show Power=False
Show Condition=False
Show Pin Connections=False
Show Connection Warnings=False
Show Cross=False
Show Attribute Text=True
Show Grid Text=True

[Object]
Object=TitleBlock
CBorder=#000000
Px=80,128,560,256
Rot=0
KeepAspectRatio=True
OneTitle=True
Placement=BottomRight

[Attr]
ON=0,0,NAME
V=DefaultOld
Font=Verdana

[Attr]
ON=0,11,#Field1
V=$name
Font=Verdana

[Attr]
ON=0,22,#Field2
V=$user $company
Font=Verdana

[Attr]
ON=0,33,#Field3
V
Font=Verdana

[Attr]
ON=0,44,#Field4
V=$date
Font=Verdana

[Attr]
ON=0,55,#Field5
V=Page $page of $maxpage
Font=Verdana

[Comp]
Name=Battery1
Px=48,80
Rot=3
Page=1

[Attr]
ON=-24,-43,PART
V=V1
Style=8192

[Attr]
ON=-24,-28,VALUE
V=15
Style=8192

[Comp]
Name=Ground
Px=48,80
Rot=7
Page=1

[Comp]
Name=Battery1
Px=112,80
Rot=3
Page=1

[Attr]
ON=-24,-43,PART
V=V2
Style=8192

[Attr]
ON=-28,-28,VALUE
V=-15
Style=8192

[Comp]
Name=Ground
Px=112,80
Rot=7
Page=1

[Comp]
Name=Voltage Source
Px=128,152
Rot=6

[Attr]
ON=-32,-29,PART
V=Eg
Style=8192

[Attr]
ON=-32,28,VALUE
V=DC 0 AC 1 0 Pulse 0 5 0 0 0 0.5 1

[Attr]
ON=0,0,Saved_Pulse
V=DC 0 AC 1 0 Pulse 0 5 0 0 0 0.5 1
Style=256

[Attr]
ON=0,11,Saved_Sin
V=DC 0 AC 1 0 Sin 0 1 10 0 0 0
Style=256

[Comp]
Name=DFF
Style=ShowPinText
Px=232,104

[Attr]
ON=46,10,PART
V=D1
Style=8192

[Attr]
ON=46,25,TIMING MODEL
V=D0_EFF

[Attr]
ON=46,40,I/O MODEL
V=IO_STD

[Attr]
ON=46,55,MNTYMXDLY
V=0

[Attr]
ON=46,70,IO_LEVEL
V=0

[Attr]
ON=46,85,POWER NODE
V=$G_DPWR

[Attr]
ON=46,100,GROUND NODE
V=$G_DGND

[Attr]
ON=0,0,PACKAGE
V

[Comp]
Name=DFF
Style=ShowPinText
Px=328,104

[Attr]
ON=46,10,PART
V=D2
Style=8192

[Attr]
ON=46,25,TIMING MODEL
V=D0_EFF

[Attr]
ON=46,40,I/O MODEL
V=IO_STD

[Attr]
ON=46,55,MNTYMXDLY
V=0

[Attr]
ON=46,70,IO_LEVEL
V=0

[Attr]
ON=46,85,POWER NODE
V=$G_DPWR

[Attr]
ON=46,100,GROUND NODE
V=$G_DGND

[Attr]
ON=0,0,PACKAGE
V

[Comp]
Name=And2
Px=176,96

[Attr]
ON=8,-23,PART
V=AND1
Style=8192

[Attr]
ON=-61,-38,TIMING MODEL
V=D0_GATE

[Attr]
ON=-51,-48,I/O MODEL
V=IO_STD

[Attr]
ON=-15,-48,MNTYMXDLY
V=0

[Attr]
ON=-15,-48,IO_LEVEL
V=0

[Attr]
ON=-68,-48,POWER NODE
V=$G_DPWR

[Attr]
ON=-67,-48,GROUND NODE
V=$G_DGND

[Attr]
ON=0,0,PACKAGE
V

[Comp]
Name=And2
Px=416,136

[Attr]
ON=7,-23,PART
V=AND2
Style=8192

[Attr]
ON=-61,-38,TIMING MODEL
V=D0_GATE

[Attr]
ON=-51,-53,I/O MODEL
V=IO_STD

[Attr]
ON=-15,-56,MNTYMXDLY
V=0

[Attr]
ON=-15,-56,IO_LEVEL
V=0

[Attr]
ON=-68,-56,POWER NODE
V=$G_DPWR

[Attr]
ON=-67,-56,GROUND NODE
V=$G_DGND

[Attr]
ON=0,0,PACKAGE
V

[Wire]
Pxs=304,152,304,200

[Wire]
Pxs=176,200,304,200

[Wire]
Pxs=176,112,176,200

[Comp]
Name=Tie
Px=216,128
Rot=7

[Attr]
ON=-8,8,PART
V=CC
Style=8192

[Comp]
Name=Tie
Px=312,128
Rot=7

[Attr]
ON=-8,8,PART
V=CC
Style=8192

[Wire]
Pxs=216,128,224,128

[Wire]
Pxs=312,128,320,128

[Comp]
Name=Ground
Px=128,152

[Comp]
Name=Tie
Px=80,152
Rot=6

[Attr]
ON=-29,-7,PART
V=CC
Style=8192

[Wire]
Pxs=416,152,416,208

[Wire]
Pxs=168,208,416,208

[Wire]
Pxs=168,96,168,208

[Wire]
Pxs=168,96,176,96

[Wire]
Pxs=304,104,312,104

[Wire]
Pxs=400,152,416,152

[Wire]
Pxs=408,136,416,136

[Wire]
Pxs=408,136,408,200

[Wire]
Pxs=304,200,408,200

[Wire]
Pxs=312,48,312,104

[Wire]
Pxs=312,104,320,104

[Wire]
Pxs=400,24,400,104

[Wire]
Pxs=400,24,464,24

[Comp]
Name=Ground
Px=264,80
Rot=3

[Comp]
Name=Ground
Px=360,80
Rot=3

[Wire]
Pxs=312,48,464,48

[Comp]
Name=Battery1
Px=128,88
Rot=2

[Attr]
ON=-33,-22,PART
V=V3

[Attr]
ON=-31,-22,VALUE
V=15
Style=8192

[Comp]
Name=Ground
Px=128,88

[Comp]
Name=Tie
Px=80,88
Rot=6

[Attr]
ON=-37,-6,PART
V=+Vcc
Style=8192

[Comp]
Name=Tie
Px=264,176
Rot=7

[Attr]
ON=-37,-6,PART
V=+Vcc
Style=8192

[Comp]
Name=Tie
Px=360,176
Rot=7

[Attr]
ON=-37,-6,PART
V=+Vcc
Style=8192

[Grid Text]
Text="VC"
Px=48,32
GridSnap=True
JustifyH=Left
JustifyV=Bottom
Page=1
CBorder=None

[Grid Text]
Text="VE"
Px=112,32
GridSnap=True
JustifyH=Left
JustifyV=Bottom
Page=1
CBorder=None

[Grid Text]
Text="cc"
Px=80,152
GridSnap=True
JustifyH=Left
JustifyV=Bottom
CBorder=None

[Grid Text]
Text="y1"
Px=464,24
GridSnap=True
JustifyH=Left
JustifyV=Bottom
CBorder=None

[Grid Text]
Text="y2"
Px=464,48
GridSnap=True
JustifyH=Left
JustifyV=Bottom
CBorder=None

[Grid Text]
Text="y3"
Px=464,144
GridSnap=True
JustifyH=Left
JustifyV=Bottom
CBorder=None

[Schematic]
CurrentSection 0=0
CurrentSection 1=0
CurrentSection 2=0
CurrentSection 3=0
Splitter.xs=0
Splitter.ys=0
TextQuad=4099
Scale=0.5
GridUser=10
ShapeGroups="Main","DeMorgan","Main1","Euro","Polarity","Main11","Electrolytic","GroundArrow"
CalcRMS=False
CalcAVG=False
CalcPeak=False
CalcVoltage=True
DisplayMeasure=Last
ShareScales=True

[Tools]
Pos=Top
FILESAVEASOLD=No
BOM=No
FILEPCB=No
PROBE=Yes
SELECT=Yes
COMP=Yes
TEXT=Yes
WIRE=Yes
WIRED=Yes
BUS=Yes
GRAPHIC=Yes
LINE=No
ELLIPSE=No
RECT=No
DIAM=No
ARC=No
PIE=No
LEFTBRK=No
RIGHTBRK=No
BOTHBRK=No
META=No
FLAG=Yes
INFO=Yes
HELP=Yes
HELP_SPICE=No
LINK=Yes
REGION_ENABLE=Yes
TITLE_BLOCK=Yes
DIGTRC=No
DIGTRC2=No
BUILD_COMMAND=Yes
DIGALL=No
GRIDTEXT=Yes
COMPTEXT=Yes
NODE=Yes
MEASURED=Yes
NODEV=Yes
CURRENT=Yes
POWER=Yes
CONDITIN=Yes
PIN=Yes
CONNWARN=Yes
CROSS=Yes
GRID=Yes
BORDER=Yes
BORDERONE=Yes
TITLE=Yes
RUBBER=Yes
PROPERTY=Yes
STEP=Yes
MIRROR=Yes
ROTATE=Yes
FLIPY=Yes
FLIPX=Yes
CIR_MAKEMACRO=No
CLEARCUTWIRE=No
CLIPBOARDCIRPAGE2BMM=No
FINDCOMP=Yes
FIND=Yes
REPEAT=No
REPLACE=No
MODEL=Yes
CIR2CKT=No
ATTDISP=No
ENABLE=Yes
DISABLE=Yes
TOFRONT=Yes
TOBACK=Yes
SELNEXT=No
PAGEADD=Yes
PAGEADDTEXT=No
ADDSECTION=No
PAGEDEL=Yes
ZOOMIN=Yes
ZOOMOUT=Yes
AUTOSCALECIR=Yes
GOTOFLAG=Yes
UPLEVEL=Yes
COLOR=Yes
FONT=Yes
DM_LAST=No
DM_RMS=No
DM_AVG=No
DM_PEAK=No
GRID_NONE=No
GRID_NORMAL=No
GRID_BOLD_5=No
GRID_BOLD_6=No
GRID_BOLD_USER=No
GRAPH_PAPER=No
SPLITCIRTEXTH=No
SPLITCIRTEXTV=No
SPACE_SPLITTERS_EVENLY=No
NORMALCIR=No
RENAMEDEFINE=No
RENAMECMP=No
ATTALIGN=No
RESETNODEPOS=No
FIT2STANDARD=No
NODESNAP=No
MOVETEXT=No
TEXTINC=No
TOGGLETEXT=No
TOGGLEMODE=No
TOLERANCE=No
ALIGNLEFT=No
ALIGNRIGHT=No
ALIGNTOP=No
ALIGNBOTTOM=No

[Section]
Index=0
Name="hw"
Type=Main
Enable=True
CurrentPage 0=0
CurrentPage 1=0
CurrentPage 2=0
CurrentPage 3=0
TabSize 0=320
TabSize 1=320
TabSize 2=320
TabSize 3=416

[Page]
Index=0
Section=0
Print=True
Enable=True
Name=Page 1
PrinterScale=1
Scale 0=0.66666666666666663
Scale 1=1
Scale 2=1
Scale 3=0.5
Px=135,20
WinBackGround Color=#FFFFFF
Select Color=#FF0000
Anchor Color=#000000
Select Box Color=#000080
Grid Text Color=Height=-12,FStyle=0,Color=#800000,Name=Arial
Grid Text RTF=False
Grid Text Angle=0
Grid Text GridSnap=True
Grid Text PinIt=False
Grid Text JustifyH=Left
Grid Text JustifyV=Bottom
Component Color=#0000FF
Attribute Text=Height=-12,FStyle=0,Color=#008000,Name=Arial
Wire Color=#008000
Bus Color=#008000
Pin Connection=Height=-10,FStyle=0,Color=#FF0000,Name=Arial
Pin Marker Color=#008000
Node Number=Height=-11,FStyle=0,Color=#FF00FF,Name=Arial
Node Voltage Color=Height=-11,FStyle=0,Color=#000000,Name=Arial
Dynamic AC Voltage Color=#E4E4E4
Text Banner Text=Height=-15,FStyle=0,Color=#800000,Name=Arial
Title Block Background=#C0C0C0
Current=Height=-11,FStyle=0,Color=#0000FF,Name=Arial
Power/Condition=Height=-11,FStyle=0,Color=#FF0000,Name=Arial
Digital Path Color=#FF0000
Title Block Border=#000000
Disabled	Color=#C0C0C0
Search Color=#FFFF00
Grid Color=#000000
Graph Paper=#E4E4E4
Digital 0 Color=#000000
Digital R Color=#FFFF00
Digital F Color=#FFFF00
Digital 1 Color=#FF0000
Digital X Color=#C0C0C0
Digital Z Color=#808080
Block Select Color=#51F998

[Page]
Index=1
Section=0
Print=True
Enable=True
Name=Power Supplies
PrinterScale=1
Scale 0=1
Scale 1=1
Scale 2=1
Scale 3=1
Px=0,0
WinBackGround Color=#FFFFFF
Select Color=#FF0000
Anchor Color=#000000
Select Box Color=#000080
Grid Text Color=Height=-12,FStyle=0,Color=#800000,Name=Arial
Grid Text RTF=False
Grid Text Angle=0
Grid Text GridSnap=True
Grid Text PinIt=False
Grid Text JustifyH=Left
Grid Text JustifyV=Bottom
Component Color=#0000FF
Attribute Text=Height=-12,FStyle=0,Color=#008000,Name=Arial
Wire Color=#008000
Bus Color=#008000
Pin Connection=Height=-10,FStyle=0,Color=#FF0000,Name=Arial
Pin Marker Color=#008000
Node Number=Height=-11,FStyle=0,Color=#FF00FF,Name=Arial
Node Voltage Color=Height=-11,FStyle=0,Color=#000000,Name=Arial
Dynamic AC Voltage Color=#E4E4E4
Text Banner Text=Height=-15,FStyle=0,Color=#800000,Name=Arial
Title Block Background=#C0C0C0
Current=Height=-11,FStyle=0,Color=#0000FF,Name=Arial
Power/Condition=Height=-11,FStyle=0,Color=#FF0000,Name=Arial
Digital Path Color=#FF0000
Title Block Border=#000000
Disabled	Color=#C0C0C0
Search Color=#FFFF00
Grid Color=#000000
Graph Paper=#E4E4E4
Digital 0 Color=#000000
Digital R Color=#FFFF00
Digital F Color=#FFFF00
Digital 1 Color=#FF0000
Digital X Color=#C0C0C0
Digital Z Color=#808080
Block Select Color=#51F998

[Page]
Index=2
Section=0
Type=Text
Print=True
Enable=True
Name=Text
Font=Height=-15,FStyle=0,Color=#000080,Name=Courier New
Comment Color=#808080
WinBackGround Color=#FFFFFF
Disabled	Color=#C0C0C0
KeyWord Color=#0000FF
Error	Color=#FF0000
Search Color=#FFFF00

[Page]
Index=3
Section=0
Type=Info
Print=False
Enable=True
Name=Info
Font=Height=-15,FStyle=0,Color=#000000,Name=Courier New
Comment Color=#000000
WinBackGround Color=#FFFFFF
Disabled	Color=#C0C0C0
KeyWord Color=#0000FF
Error	Color=#FF0000
Search Color=#FFFF00

[Text Area]
Section=0
Page=2
Text=*** From file F:\MC7\LIBRARY\UTILITY.LBR
Text=*** Generic Opamp Model
Text=.MODEL $GENERIC OPA (LEVEL=3 ROUTAC=50 ROUTDC=75 VOFF=2M IOFF=3P SRP=5MEG
Text=+ SRN=5MEG IBIAS=30P GBW=2.5MEG)
Text=
Text=*** From file F:\MC7\LIBRARY\UTILITY.LBR
Text=*** 1MHz Sinusoidal Source
Text=.MODEL 1MHZ SIN (F=1KHZ A=2.5)
Text=*** From file C:\MC11demo\library\DIGIO.LIB
Text=.MODEL D0_EFF UEFF ()
Text=*** From file C:\MC11demo\library\DIGIO.LIB
Text=.MODEL DLY_EFF UEFF (THDCLKMN=5NS TPCLKQHLMX=40NS TPCLKQHLTY=25NS
Text=+ TPCLKQLHMX=25NS TPCLKQLHTY=16NS TPPCQHLMX=40NS TPPCQHLTY=25NS TPPCQLHMX=25NS
Text=+ TPPCQLHTY=16NS TSUDCLKMN=15NS TSUPCCLKHMN=10NS TWCLKHMN=25NS TWCLKLMN=25NS
Text=+ TWPCLMN=25NS)
Text=*** From file C:\MC11demo\library\DIGIO.LIB
Text=.MODEL D0_GATE UGATE ()

[InfoPage]
InfoPage=True
Warnings=True
System=True
Defines=True
Array=True
Model=True
Measure=True
MacroSubckt=True
NotUsed=True
ComponentCounts=True

[Transient]
WinID=1
Window Placement=2,3, -1,-1, -8,-31, 75,75,1241,549
Font=Height=-15,FStyle=0,Color=#0000FF,Name=Arial
WinBackGround Color=#FFFFFF
Select Color=#FF0000
Anchor Color=#000000
Select Box Color=#000080
Title=hw.cir
AutoTitle=Yes
Grid Color=#808080
Grid Weight=1
Grid Pattern=Dot6
Tracker Foreground=Height=-15,FStyle=0,Color=#000000,Name=Arial
Tracker Background=#FFFF00
Baseline color=#0000FF
BaseLine Weight=1
CurveFit color=#FF0000
CurveFit Weight=2
CurveFit Pattern=Dash
Static Grids=False
PlusMark=False
MinorLog25=Off
LabelMinor=Off
DataPoints=False
Token=False
Ruler=False
XAxisGrids=True
YAxisGrids=True
MinorLogGrids=True
BaseLine=False
AlignZ=True
Align Cursors=True
TagFormatX=3
TagFormatY=3
FormulaFormat=2
EndMode=SCALE
Graph Background=#E4E4E4
Tracker Intercept=False
Tracker Mouse=True
Tracker Cursor=True
Tracker Cursor BranchInfo=False
Horizontal Cursor=False
Same Y Scales=Yes
Enable X Scaling=True
Enable Y Scaling=True
Keep X Scales The Same=False
Number of Grids X=5
Number of Grids Y=5
Cursor Select Color Primary=#808080
Cursor Select Color Secondary=#FF0000
Data Point Labels Color Fore=Height=-15,FStyle=0,Color=#000000,Name=Arial
Data Point Labels Color Back=#FFFF00
OperPoint=False
OperPointOnly=False
AutoScaleRanges=True
FixedTimeStep=False
DoPSS=False
PSS_Periods="1"
PSS_Iterations="5"
PSS_Error="1u"
PSS_ShowPlots=True
FFT_NPts="1024"
FFT_IncludeDCHarmonic=False
FFT_AutoScale_Harmonics="10"
PrinterAutoTile=No
PrinterBlackBorder=No
MonMaxShow=4
MonPageWidth=66
MonPlotWidth=21
MonExprXWidth=142
MonExprYWidth=260
MonRangeXWidth=90
MonRangeYWidth=90
AnimateWait=None
AnimateWaitTime=500
AnimatePressAfter=0
Save_For_Future=No
Reduce_Display=1
Reduce_Save=1
Reduce_ThrowDataOut=0
Num Out Header Left
Num Out Header Center="$MC\n$user\n$company\n$Analysis of $name\n"
Num Out Header Right
Num Out Delimiter=32
Num Out Write=True
Num Out Write Main Header=True
Num Out Write Limits=True
Num Out Write Branch Header=True
Num Out Write Models=True
Num Out Write Zero Models=True
Num Out Write Undefined Models=True
Num Out Write Operating Point=True
Num Out Write Measurement Values=True
Num Out Write Values=True
Num Out Write Waveform Header=True
Num Out Allow Dup Y Expr=False
Num Out Low="TSTART"
Num Out High="TMAX"
Num Out Font=Height=-15,FStyle=0,Color=#000080,Name=Courier New
Num Out Window Placement=2,3, -1,-1, -8,-31, 156,156,1278,545
Num Out Format=3
Num Out HideNonSelected=False
AutoSaveWave=False
Wave Format=16E
State Variables Format=5E
Print Individual Pages=False

[Tools]
Pos=Top
SELECT=Yes
GRAPHIC=Yes
LINE=No
ELLIPSE=No
RECT=No
DIAM=No
ARC=No
PIE=No
LEFTBRK=No
RIGHTBRK=No
BOTHBRK=No
META=No
POLYCLOS=No
SCALE=Yes
CURSOR=Yes
MEASUREH=Yes
MEASUREV=Yes
TAG=Yes
PTAG=Yes
TEXT=Yes
PROPERTY=Yes
START=Yes
STOP=Yes
PAUSE=Yes
RESUME=No
DATAPTS=Yes
TOKENS=Yes
RULER=Yes
PLUS=Yes
XAXIS=Yes
YAXIS=Yes
MINORLOG=Yes
LOG25=Yes
BASELINE=Yes
HORIZCUR=Yes
GOTOX=Yes
GOTOY=Yes
GOTOPERF=Yes
GOTOBRNC=Yes
CLEAR_ACCUMULATED=Yes
PDELETE_ALL_PLOTS=Yes
NEXT=Yes
NEXTIN=Yes
PEAK=Yes
VALLEY=Yes
HIGH=Yes
LOW=Yes
INFLECTN=Yes
GHIGH=Yes
GLOW=Yes
BOTTOM=Yes
TOP=Yes
WAVEFORMBUFFER=Yes
AOUTPUT=Yes
PKEY=Yes
ENXSCALE=Yes
ENYSCALE=Yes
ZOOMIN=Yes
ZOOMOUT=Yes
AUTOSCALE=Yes
RESTORESCALE=No
COLOR=Yes
FONT=Yes
SELNEXT=No
NORMALIZE=No
NORMALIZE_MIN=No
NORMALIZE_MAX=No
ADD_TAG_LEFT=No
ADD_TAG_RIGHT=No
ADD_HORZ_TAG=No
ADD_VERT_TAG=No
ALIGN_CURSORS=No
ALIGN_CURSORSZ=No
CURSORTOCLIPBOARD=No
TRACKER_CURSOR=No
TRACKER_CURSOR_BRANCHINFO=No
TRACKER_INTERCEPT=No
TRACKER_MOUSE=No
TOFRONT=Yes
TOBACK=Yes
SPLITCIRTEXTH=No
SPLITCIRTEXTV=No
SPACE_SPLITTERS_EVENLY=No
NORMALCIR=No
LABEL_WAVEFORM=No
LABEL_DATA_POINTS=No
WFB_ADD_TO_LIMITS=No
ENVELOPE=No
SAMEYSCALES=No
KEEPXSCALESTHESAME=No
CURVEFIT=No
SHOWWATCH=No
BP=No
TOGGLEMODE=No
REMOVEALLTEXT=No
AUTOSCALEX=No
LABELALLMINOR=No
ALIGNLEFT=No
ALIGNRIGHT=No
ALIGNTOP=No
ALIGNBOTTOM=No

[APage]
Analysis=Transient
Name="Main"

[AC]
WinID=2
Window Placement=2,3, -1,-1, -8,-31, 130,130,1252,519
Font=Height=-15,FStyle=0,Color=#0000FF,Name=Arial
WinBackGround Color=#FFFFFF
Select Color=#FF0000
Anchor Color=#000000
Select Box Color=#000080
Title
AutoTitle=Yes
Grid Color=#808080
Grid Weight=1
Grid Pattern=Dot6
Tracker Foreground=Height=-15,FStyle=0,Color=#000000,Name=Arial
Tracker Background=#FFFF00
Baseline color=#0000FF
BaseLine Weight=1
CurveFit color=#FF0000
CurveFit Weight=2
CurveFit Pattern=Dash
Static Grids=False
PlusMark=False
MinorLog25=Off
LabelMinor=Off
DataPoints=False
Token=False
Ruler=False
XAxisGrids=True
YAxisGrids=True
MinorLogGrids=False
BaseLine=False
AlignZ=True
Align Cursors=True
TagFormatX=3
TagFormatY=3
FormulaFormat=2
EndMode=SCALE
Graph Background=#E4E4E4
Tracker Intercept=False
Tracker Mouse=True
Tracker Cursor=True
Tracker Cursor BranchInfo=False
Horizontal Cursor=False
Same Y Scales=Yes
Enable X Scaling=True
Enable Y Scaling=True
Keep X Scales The Same=False
Number of Grids X=5
Number of Grids Y=5
Cursor Select Color Primary=#808080
Cursor Select Color Secondary=#FF0000
Data Point Labels Color Fore=Height=-15,FStyle=0,Color=#000000,Name=Arial
Data Point Labels Color Back=#FFFF00
OperPoint=True
AutoScaleRanges=True
FFT_NPts="1024"
FFT_IncludeDCHarmonic=False
FFT_AutoScale_Harmonics="10"
PrinterAutoTile=No
PrinterBlackBorder=No
MonMaxShow=6
MonPageWidth=66
MonPlotWidth=21
MonExprXWidth=142
MonExprYWidth=260
MonRangeXWidth=90
MonRangeYWidth=90
AnimateWait=None
AnimateWaitTime=500
AnimatePressAfter=0
Save_For_Future=No
Reduce_Display=1
Reduce_Save=1
Reduce_ThrowDataOut=0
Num Out Header Left
Num Out Header Center="$MC\n$user\n$company\n$Analysis of $name\n"
Num Out Header Right
Num Out Delimiter=32
Num Out Write=True
Num Out Write Main Header=True
Num Out Write Limits=True
Num Out Write Branch Header=True
Num Out Write Models=True
Num Out Write Zero Models=True
Num Out Write Undefined Models=True
Num Out Write Operating Point=True
Num Out Write Measurement Values=True
Num Out Write Noise=True
Num Out Write Values=True
Num Out Write Waveform Header=True
Num Out Allow Dup Y Expr=False
Num Out Low="FMIN"
Num Out High="FMAX"
Num Out Font=Height=-15,FStyle=0,Color=#000080,Name=Courier New
Num Out Format=3
Num Out HideNonSelected=False
AutoSaveWave=False
Wave Format=16E
State Variables Format=5E
Print Individual Pages=False

[Tools]
Pos=Top
SELECT=Yes
GRAPHIC=Yes
LINE=No
ELLIPSE=No
RECT=No
DIAM=No
ARC=No
PIE=No
LEFTBRK=No
RIGHTBRK=No
BOTHBRK=No
META=No
POLYCLOS=No
SCALE=Yes
CURSOR=Yes
MEASUREH=Yes
MEASUREV=Yes
TAG=Yes
PTAG=Yes
TEXT=Yes
PROPERTY=Yes
START=Yes
STOP=Yes
PAUSE=Yes
RESUME=No
DATAPTS=Yes
TOKENS=Yes
RULER=Yes
PLUS=Yes
XAXIS=Yes
YAXIS=Yes
MINORLOG=Yes
LOG25=Yes
BASELINE=Yes
HORIZCUR=Yes
GOTOX=Yes
GOTOY=Yes
GOTOPERF=Yes
GOTOBRNC=Yes
CLEAR_ACCUMULATED=Yes
PDELETE_ALL_PLOTS=Yes
NEXT=Yes
NEXTIN=Yes
PEAK=Yes
VALLEY=Yes
HIGH=Yes
LOW=Yes
INFLECTN=Yes
GHIGH=Yes
GLOW=Yes
BOTTOM=Yes
TOP=Yes
WAVEFORMBUFFER=Yes
AOUTPUT=Yes
PKEY=Yes
ENXSCALE=Yes
ENYSCALE=Yes
ZOOMIN=Yes
ZOOMOUT=Yes
AUTOSCALE=Yes
RESTORESCALE=No
COLOR=Yes
FONT=Yes
SELNEXT=No
NORMALIZE=No
NORMALIZE_MIN=No
NORMALIZE_MAX=No
ADD_TAG_LEFT=No
ADD_TAG_RIGHT=No
ADD_HORZ_TAG=No
ADD_VERT_TAG=No
ALIGN_CURSORS=No
ALIGN_CURSORSZ=No
CURSORTOCLIPBOARD=No
TRACKER_CURSOR=No
TRACKER_CURSOR_BRANCHINFO=No
TRACKER_INTERCEPT=No
TRACKER_MOUSE=No
TOFRONT=Yes
TOBACK=Yes
SPLITCIRTEXTH=No
SPLITCIRTEXTV=No
SPACE_SPLITTERS_EVENLY=No
NORMALCIR=No
LABEL_WAVEFORM=No
LABEL_DATA_POINTS=No
WFB_ADD_TO_LIMITS=No
ENVELOPE=No
SAMEYSCALES=No
KEEPXSCALESTHESAME=No
CURVEFIT=No
SHOWWATCH=No
BP=No
TOGGLEMODE=No
REMOVEALLTEXT=No
AUTOSCALEX=No
LABELALLMINOR=No
ALIGNLEFT=No
ALIGNRIGHT=No
ALIGNTOP=No
ALIGNBOTTOM=No

[APage]
Analysis=AC
Name="Main"

[AObject]
Analysis=AC
Object=Tag
Locked=True
EndPoint=ArrowF
CBorder=#000080
w=0
AliasID1=1
Pos=721.92075610102859,1.0119999999999956,303.42458043728345,45.745856353591165
Font=Height=-15,FStyle=0,Color=#000080,Name=Arial
Format=3
FormatY=3
Branch=0

[DC]
WinID=3
Window Placement=2,3, -1,-1, -8,-31, 104,104,1226,493
Font=Height=-15,FStyle=0,Color=#0000FF,Name=Arial
WinBackGround Color=#FFFFFF
Select Color=#FF0000
Anchor Color=#000000
Select Box Color=#000080
Title
AutoTitle=Yes
Grid Color=#808080
Grid Weight=1
Grid Pattern=Dot6
Tracker Foreground=Height=-15,FStyle=0,Color=#000000,Name=Arial
Tracker Background=#FFFF00
Baseline color=#0000FF
BaseLine Weight=1
CurveFit color=#FF0000
CurveFit Weight=2
CurveFit Pattern=Dash
Static Grids=False
PlusMark=False
MinorLog25=Off
LabelMinor=Off
DataPoints=False
Token=False
Ruler=False
XAxisGrids=True
YAxisGrids=True
MinorLogGrids=False
BaseLine=False
AlignZ=True
Align Cursors=True
TagFormatX=3
TagFormatY=3
FormulaFormat=2
EndMode=SCALE
Graph Background=#E4E4E4
Tracker Intercept=False
Tracker Mouse=True
Tracker Cursor=True
Tracker Cursor BranchInfo=False
Horizontal Cursor=False
Same Y Scales=Yes
Enable X Scaling=True
Enable Y Scaling=True
Keep X Scales The Same=False
Number of Grids X=5
Number of Grids Y=5
Cursor Select Color Primary=#808080
Cursor Select Color Secondary=#FF0000
Data Point Labels Color Fore=Height=-15,FStyle=0,Color=#000000,Name=Arial
Data Point Labels Color Back=#FFFF00
AutoScaleRanges=False
PrinterAutoTile=No
PrinterBlackBorder=No
MonMaxShow=3
MonPageWidth=66
MonPlotWidth=21
MonExprXWidth=142
MonExprYWidth=260
MonRangeXWidth=90
MonRangeYWidth=90
AnimateWait=None
AnimateWaitTime=500
AnimatePressAfter=0
Save_For_Future=No
Reduce_Display=1
Reduce_Save=1
Reduce_ThrowDataOut=0
Num Out Header Left
Num Out Header Center="$MC\n$user\n$company\n$Analysis of $name\n"
Num Out Header Right
Num Out Delimiter=32
Num Out Write=True
Num Out Write Main Header=True
Num Out Write Limits=True
Num Out Write Branch Header=True
Num Out Write Models=True
Num Out Write Zero Models=True
Num Out Write Undefined Models=True
Num Out Write Measurement Values=True
Num Out Write Values=True
Num Out Write Waveform Header=True
Num Out Allow Dup Y Expr=False
Num Out Low="DCMIN"
Num Out High="DCMAX"
Num Out Font=Height=-15,FStyle=0,Color=#000080,Name=Courier New
Num Out Format=3
Num Out HideNonSelected=False
AutoSaveWave=False
Wave Format=16E
State Variables Format=5E
Print Individual Pages=False

[Tools]
Pos=Top
SELECT=Yes
GRAPHIC=Yes
LINE=No
ELLIPSE=No
RECT=No
DIAM=No
ARC=No
PIE=No
LEFTBRK=No
RIGHTBRK=No
BOTHBRK=No
META=No
POLYCLOS=No
SCALE=Yes
CURSOR=Yes
MEASUREH=Yes
MEASUREV=Yes
TAG=Yes
PTAG=Yes
TEXT=Yes
PROPERTY=Yes
START=Yes
STOP=Yes
PAUSE=Yes
RESUME=No
DATAPTS=Yes
TOKENS=Yes
RULER=Yes
PLUS=Yes
XAXIS=Yes
YAXIS=Yes
MINORLOG=Yes
LOG25=Yes
BASELINE=Yes
HORIZCUR=Yes
GOTOX=Yes
GOTOY=Yes
GOTOPERF=Yes
GOTOBRNC=Yes
CLEAR_ACCUMULATED=Yes
PDELETE_ALL_PLOTS=Yes
NEXT=Yes
NEXTIN=Yes
PEAK=Yes
VALLEY=Yes
HIGH=Yes
LOW=Yes
INFLECTN=Yes
GHIGH=Yes
GLOW=Yes
BOTTOM=Yes
TOP=Yes
WAVEFORMBUFFER=Yes
AOUTPUT=Yes
PKEY=Yes
ENXSCALE=Yes
ENYSCALE=Yes
ZOOMIN=Yes
ZOOMOUT=Yes
AUTOSCALE=Yes
RESTORESCALE=No
COLOR=Yes
FONT=Yes
SELNEXT=No
NORMALIZE=No
NORMALIZE_MIN=No
NORMALIZE_MAX=No
ADD_TAG_LEFT=No
ADD_TAG_RIGHT=No
ADD_HORZ_TAG=No
ADD_VERT_TAG=No
ALIGN_CURSORS=No
ALIGN_CURSORSZ=No
CURSORTOCLIPBOARD=No
TRACKER_CURSOR=No
TRACKER_CURSOR_BRANCHINFO=No
TRACKER_INTERCEPT=No
TRACKER_MOUSE=No
TOFRONT=Yes
TOBACK=Yes
SPLITCIRTEXTH=No
SPLITCIRTEXTV=No
SPACE_SPLITTERS_EVENLY=No
NORMALCIR=No
LABEL_WAVEFORM=No
LABEL_DATA_POINTS=No
WFB_ADD_TO_LIMITS=No
ENVELOPE=No
SAMEYSCALES=No
KEEPXSCALESTHESAME=No
CURVEFIT=No
SHOWWATCH=No
BP=No
TOGGLEMODE=No
REMOVEALLTEXT=No
AUTOSCALEX=No
LABELALLMINOR=No
ALIGNLEFT=No
ALIGNRIGHT=No
ALIGNTOP=No
ALIGNBOTTOM=No

[Monte Carlo Options]
Analysis=Transient
Status=Off
Zero Tolerance=False
Eliminate Outliers=False
Distribution=Normal
Number of Runs=10
Seed=0

[Monte Carlo Options]
Analysis=AC
Status=Off
Zero Tolerance=False
Eliminate Outliers=False
Distribution=Normal
Number of Runs=10
Seed=0

[Monte Carlo Options]
Analysis=DC
Status=Off
Zero Tolerance=False
Eliminate Outliers=False
Distribution=Normal
Number of Runs=10
Seed=0

[Limits]
Analysis=Transient
TRange=4
TStep=0.005
NPts=51
Temp=27
RetraceRuns=1
StateVar=Zero
RunOption=Normal
Temperature Type=Linear
Accumulate Plots=False
IgnoreExprErrors=False

[WaveForm]
Analysis=Transient
Plt=1
AliasID=1
XExp=T
YExp=v(cc)
XRng=4
YRng=AutoAlways
Options=LINEARX,LINEARY
Range Grid X=0.8
Enable=Enable
CS=Normal
Line Color=#FF0000
Text Color=#FF0000
Rainbow=False
VFmtX=3
VFmtY=3
ScaleFactorX="None"
ScaleFactorY="None"
ScaleUnitsX="Auto"
ScaleUnitsY="Auto"
SFmtX=3
SFmtY=3
NOFmtX=3
NOFmtY=3

[WaveForm]
Analysis=Transient
Plt=2
AliasID=4
XExp=T
YExp=v(y1)
XRng=4
YRng=AutoAlways
Options=LINEARX,LINEARY
Range Grid X=0.8
Enable=Enable
Line Color=#9B9BFF
Text Color=#9B9BFF
Rainbow=False
VFmtX=3
VFmtY=3
ScaleFactorX="None"
ScaleFactorY="None"
ScaleUnitsX="Auto"
ScaleUnitsY="Auto"
SFmtX=3
SFmtY=3
NOFmtX=3
NOFmtY=3

[WaveForm]
Analysis=Transient
Plt=3
AliasID=2
XExp=T
YExp=v(y2)
XRng=4
YRng=AutoAlways
Options=LINEARX,LINEARY
Range Grid X=0.8
Enable=Enable
CS=Normal
Line Color=#6363FF
Text Color=#6363FF
Rainbow=False
VFmtX=3
VFmtY=3
ScaleFactorX="None"
ScaleFactorY="None"
ScaleUnitsX="Auto"
ScaleUnitsY="Auto"
SFmtX=3
SFmtY=3
NOFmtX=3
NOFmtY=3

[WaveForm]
Analysis=Transient
Plt=4
AliasID=3
XExp=T
YExp=v(y3)
XRng=4
YRng=AutoAlways
Options=LINEARX,LINEARY
Range Grid X=0.8
Enable=Enable
CS=Normal
Line Color=#8000C0
Text Color=#8000C0
Rainbow=False
VFmtX=3
VFmtY=3
ScaleFactorX="None"
ScaleFactorY="None"
ScaleUnitsX="Auto"
ScaleUnitsY="Auto"
SFmtX=3
SFmtY=3
NOFmtX=3
NOFmtY=3

[Limits]
Analysis=AC
FRange=40Meg,1
NPts=51
Temp=27
MaxChng=0.01
NInput=NONE
NOutput=2
Sweep type=Log
StateVar=Zero
RunOption=Normal
Temperature Type=Linear
Accumulate Plots=False
IgnoreExprErrors=False

[WaveForm]
Analysis=AC
Plt=1
AliasID=1
XExp=F
YExp=db(v(y1)/V(cc))
XRng=3.01995,0.47863
YRng=AutoAlways
Options=LINEARY
Enable=Enable
Line Color=#9B9BFF
Text Color=#9B9BFF
Rainbow=False
VFmtX=3
VFmtY=3
ScaleFactorX="None"
ScaleFactorY="None"
ScaleUnitsX="Auto"
ScaleUnitsY="Auto"
SFmtX=3
SFmtY=3
NOFmtX=3
NOFmtY=3

[WaveForm]
Analysis=AC
Plt=1
AliasID=2
XExp=F
YExp=db(v(y2)/V(cc))
XRng=3.01995,0.47863
YRng=AutoAlways
Options=LINEARY
Enable=Enable
Line Color=#6363FF
Text Color=#6363FF
Rainbow=False
VFmtX=3
VFmtY=3
ScaleFactorX="None"
ScaleFactorY="None"
ScaleUnitsX="Auto"
ScaleUnitsY="Auto"
SFmtX=3
SFmtY=3
NOFmtX=3
NOFmtY=3

[WaveForm]
Analysis=AC
Plt=1
AliasID=3
XExp=F
YExp=db(v(y3)/V(cc))
XRng=3.01995,0.47863
YRng=AutoAlways
Options=LINEARY
Enable=Enable
Line Color=#8000C0
Text Color=#8000C0
Rainbow=False
VFmtX=3
VFmtY=3
ScaleFactorX="None"
ScaleFactorY="None"
ScaleUnitsX="Auto"
ScaleUnitsY="Auto"
SFmtX=3
SFmtY=3
NOFmtX=3
NOFmtY=3

[WaveForm]
Analysis=AC
Plt=2
AliasID=4
XExp=F
YExp=ph(v(y1)/V(cc))
XRng=10000,1e-6
YRng=AutoAlways
Options=LINEARY
Enable=Enable
Line Color=#FDD844
Text Color=#FDD844
Rainbow=False
VFmtX=3
VFmtY=3
ScaleFactorX="None"
ScaleFactorY="None"
ScaleUnitsX="Auto"
ScaleUnitsY="Auto"
SFmtX=3
SFmtY=3
NOFmtX=3
NOFmtY=3

[WaveForm]
Analysis=AC
Plt=2
AliasID=5
XExp=F
YExp=ph(v(y2)/V(cc))
XRng=10000,1e-6
YRng=AutoAlways
Options=LINEARY
Enable=Enable
Line Color=#FCAD2A
Text Color=#FCAD2A
Rainbow=False
VFmtX=3
VFmtY=3
ScaleFactorX="None"
ScaleFactorY="None"
ScaleUnitsX="Auto"
ScaleUnitsY="Auto"
SFmtX=3
SFmtY=3
NOFmtX=3
NOFmtY=3

[WaveForm]
Analysis=AC
Plt=2
AliasID=6
XExp=F
YExp=ph(v(y3)/V(cc))
XRng=10000,1e-6
YRng=AutoAlways
Options=LINEARY
Enable=Enable
Line Color=#FE7900
Text Color=#FE7900
Rainbow=False
VFmtX=3
VFmtY=3
ScaleFactorX="None"
ScaleFactorY="None"
ScaleUnitsX="Auto"
ScaleUnitsY="Auto"
SFmtX=3
SFmtY=3
NOFmtX=3
NOFmtY=3

[Limits]
Analysis=DC
I1Range=10,0,.5
NPts=51
Temp=27
MaxChng=5
StateVar=Zero
RunOption=Normal
Temperature Type=Linear
Accumulate Plots=False
IgnoreExprErrors=False
Sweep1 type=Auto
Sweep2 type=None

[WaveForm]
Analysis=DC
Plt=1
AliasID=1
XExp=DCINPUT1
YExp=v(OUT)
XRng=Auto
YRng=Auto
Options=LINEARX,LINEARY
Enable=Enable
Line Color=#0000FF
Text Color=#0000FF
Rainbow=False
VFmtX=3
VFmtY=3
ScaleFactorX="None"
ScaleFactorY="None"
ScaleUnitsX="Auto"
ScaleUnitsY="Auto"
SFmtX=3
SFmtY=3
NOFmtX=3
NOFmtY=3

[WaveForm]
Analysis=DC
AliasID=-1
Options=LINEARX,LINEARY
Enable=Enable
Line Color=#FF0000
Text Color=#FF0000
Rainbow=False
VFmtX=3
VFmtY=3
ScaleFactorX="None"
ScaleFactorY="None"
ScaleUnitsX="Auto"
ScaleUnitsY="Auto"
SFmtX=3
SFmtY=3
NOFmtX=3
NOFmtY=3

[WaveForm]
Analysis=DC
AliasID=-1
Options=LINEARX,LINEARY
Enable=Enable
Line Color=#008000
Text Color=#008000
Rainbow=False
VFmtX=3
VFmtY=3
ScaleFactorX="None"
ScaleFactorY="None"
ScaleUnitsX="Auto"
ScaleUnitsY="Auto"
SFmtX=3
SFmtY=3
NOFmtX=3
NOFmtY=3

[Limits]
Analysis=DynamicAC
FirstValueDisplay=Mag
SecondValueDisplay=PhaseDeg
PlaceText=True

[Limits]
Analysis=DynamicDC
PlaceText=True

[Pane]
Analysis=Transient
CurrentPage 0="Main"

[Pane]
Analysis=AC
CurrentPage 0="Main"

[Pane]
Analysis=DC

[Pane]
Analysis=HmDistortion

[Pane]
Analysis=ImDistortion

[Pane]
Analysis=Stability

[Stepping]
Analysis=Transient
Index=1
Method=Log
Parameter Type=Component
Name=R1
Param=Value
From=10
To=100000
Value=10

[Stepping]
Analysis=AC
Index=1
Method=Log
Parameter Type=Component
Name=R1
Param=Value
From=1000
To=100000
Value=10

[Optimize]
Analysis=Transient
Format=3
ThatCnt=4
POWELL_TOL=1e-4
POWELL_RelPercentTol=.1
POWELL_PercentTol=1m
HOOKE_TOL=1e-4
HOOKE_PercentTol=1m
HOOKE_RHO=.3
HOOKE_EPSILON=1e-9
HOOKE_ITERMAX=1000
DE_MAXITER=200
DE_IPRINT=50
DE_PCROS=.9
DE_FACT=.5
DE_MULTIPLIER=5
InitialRangeFactor=2
InitializeEach=True
Method=Powell
Update_Plot=False
Minimize_Plot=False
UseInitialValue=False

[Optimize]
Analysis=AC
Format=3
ThatCnt=4
POWELL_TOL=1e-4
POWELL_RelPercentTol=.1
POWELL_PercentTol=1m
HOOKE_TOL=1e-4
HOOKE_PercentTol=1m
HOOKE_RHO=.3
HOOKE_EPSILON=1e-9
HOOKE_ITERMAX=1000
DE_MAXITER=200
DE_IPRINT=50
DE_PCROS=.9
DE_FACT=.5
DE_MULTIPLIER=5
InitialRangeFactor=2
InitializeEach=True
Method=Powell
Update_Plot=False
Minimize_Plot=False
UseInitialValue=False

[Optimize]
Analysis=DC
Format=3
ThatCnt=4
POWELL_TOL=1e-4
POWELL_RelPercentTol=.1
POWELL_PercentTol=1m
HOOKE_TOL=1e-4
HOOKE_PercentTol=1m
HOOKE_RHO=.3
HOOKE_EPSILON=1e-9
HOOKE_ITERMAX=1000
DE_MAXITER=200
DE_IPRINT=50
DE_PCROS=.9
DE_FACT=.5
DE_MULTIPLIER=5
InitialRangeFactor=2
InitializeEach=True
Method=Powell
Update_Plot=False
Minimize_Plot=False
UseInitialValue=False

[Watch]
Analysis=Transient
Format=3
ExprPercentWidth=80

[Watch]
Analysis=AC
Format=3
ExprPercentWidth=80

[Watch]
Analysis=DC
Format=3
ExprPercentWidth=80

[TF]
Input Source
Place Text=False

[WCTolerance]
Var Width=100
Nominal Width=72
Tol Width=152

[OPMethods]
Analysis=Transient
Standard Newton-Raphson=0,0
Source Stepping=0,0
Diagonal Gmin Stepping=0,0
Junction Gmin Stepping=0,0
Pseudo Transient=0,0

[OPMethods]
Analysis=AC
Standard Newton-Raphson=0,0
Source Stepping=0,0
Diagonal Gmin Stepping=0,0
Junction Gmin Stepping=0,0
Pseudo Transient=0,0

[OPMethods]
Analysis=DC
Standard Newton-Raphson=0,0
Source Stepping=0,0
Diagonal Gmin Stepping=0,0
Junction Gmin Stepping=0,0
Pseudo Transient=0,0

[OPMethods]
Analysis=HmDistortion
Standard Newton-Raphson=0,0
Source Stepping=0,0
Diagonal Gmin Stepping=0,0
Junction Gmin Stepping=0,0
Pseudo Transient=0,0

[OPMethods]
Analysis=ImDistortion
Standard Newton-Raphson=0,0
Source Stepping=0,0
Diagonal Gmin Stepping=0,0
Junction Gmin Stepping=0,0
Pseudo Transient=0,0

[OPMethods]
Analysis=Stability
Standard Newton-Raphson=0,0
Source Stepping=0,0
Diagonal Gmin Stepping=0,0
Junction Gmin Stepping=0,0
Pseudo Transient=0,0

[OPMethods]
Analysis=DynamicAC
Standard Newton-Raphson=0,0
Source Stepping=0,0
Diagonal Gmin Stepping=0,0
Junction Gmin Stepping=0,0
Pseudo Transient=0,0

[OPMethods]
Analysis=DynamicDC
Standard Newton-Raphson=0,0
Source Stepping=0,0
Diagonal Gmin Stepping=0,0
Junction Gmin Stepping=0,0
Pseudo Transient=0,0
